M48
;DRILL file {KiCad (2017-02-01 revision 4d30545)-master} date Thu Aug 17 17:30:22 2017
;FORMAT={3:3/ absolute / metric / suppress leading zeros}
FMAT,2
METRIC,TZ
T1C0.650
T2C0.762
T3C0.800
T4C0.800
T5C1.000
T6C1.001
T7C1.016
T8C1.200
T9C1.250
%
G90
G05
M71
T1
X91380Y46015
X91380Y44015
X96380Y33225
X98380Y33225
X108600Y6575
T2
X119680Y10789
X122220Y18155
X122220Y5709
T3
X9490Y26055
X14010Y64455
X14490Y26055
X21790Y51155
X22160Y72195
X25680Y27715
X25680Y25215
X26140Y73565
X35120Y41215
X53800Y46785
X53900Y22935
X55700Y46785
X55900Y22935
X66260Y57135
X86730Y8305
X88730Y8305
X89110Y48845
X90230Y30345
X98480Y54945
X101550Y19365
X101550Y17365
X102810Y50145
X103610Y32105
X103790Y40525
X103790Y38525
X105690Y46265
X108390Y55595
X108600Y8575
X112330Y40365
X115020Y44815
X115570Y40435
X115820Y56925
X124650Y11325
X126220Y18935
X127120Y56215
X127480Y35655
X129690Y26595
X129820Y14035
X129970Y41845
X133950Y30785
X135880Y33885
X147490Y13785
X148650Y58615
X148970Y23855
X154970Y79945
X156680Y35295
X157100Y54555
T4
X9540Y16235
X14620Y16235
X19830Y16235
X24910Y16235
X61440Y17155
X61440Y12075
X85240Y13555
X90320Y13555
X95940Y20545
X95940Y15465
X101600Y11345
X101600Y6265
T5
X25180Y94371
X27720Y94371
T6
X6350Y76595
X6350Y61355
X8890Y76595
X8890Y61355
X9170Y85055
X11430Y76595
X11430Y61355
X11710Y85055
X11920Y55975
X13970Y76595
X13970Y61355
X14250Y85055
X14460Y55975
X16510Y76595
X16510Y61355
X16790Y85055
X17000Y55975
X19050Y76595
X19050Y61355
X21590Y76595
X21590Y61355
X24090Y55165
X24130Y76595
X24130Y61355
X26630Y55165
X26670Y76595
X26670Y61355
X29170Y55165
X29210Y76595
X29210Y61355
X31710Y55165
X31750Y76595
X31750Y61355
X34250Y55165
X34290Y76595
X34290Y61355
X35510Y9575
X36790Y55165
X36830Y76595
X36830Y61355
X39330Y55165
X39370Y76595
X39370Y61355
X41870Y55165
X41910Y61355
X45660Y27605
X45660Y17445
X45670Y9575
T7
X14850Y94371
X17390Y94371
X35924Y27869
X35924Y25329
X36176Y17645
X36176Y15105
X38070Y94371
T8
X17800Y71945
X35530Y94371
X41910Y76595
X49560Y35065
X82010Y52645
X94050Y79685
X134610Y62975
X142650Y77825
T9
X16900Y5695
X19440Y5695
X21980Y5695
X22590Y35595
X25130Y35595
X27670Y35595
X54380Y16075
X54380Y13535
X54380Y10995
X55720Y76385
X55770Y68295
X58260Y76385
X58310Y68295
X60800Y76385
X60850Y68295
X85580Y21725
X88120Y21725
X90660Y21725
X110060Y21075
X110060Y18535
X110060Y15995
T0
M30
