EESchema Schematic File Version 2
LIBS:Electronic_Dc_Load
LIBS:74xgxx
LIBS:74xx
LIBS:ac-dc
LIBS:actel
LIBS:adc-dac
LIBS:allegro
LIBS:Altera
LIBS:analog_devices
LIBS:analog_switches
LIBS:atmel
LIBS:audio
LIBS:battery_management
LIBS:bbd
LIBS:bosch
LIBS:brooktre
LIBS:cmos4000
LIBS:cmos_ieee
LIBS:conn
LIBS:contrib
LIBS:cypress
LIBS:dc-dc
LIBS:device
LIBS:digital-audio
LIBS:diode
LIBS:display
LIBS:dsp
LIBS:elec-unifil
LIBS:ESD_Protection
LIBS:ftdi
LIBS:gennum
LIBS:graphic
LIBS:hc11
LIBS:intel
LIBS:interface
LIBS:ir
LIBS:Lattice
LIBS:linear
LIBS:logo
LIBS:maxim
LIBS:mechanical
LIBS:memory
LIBS:microchip
LIBS:microchip_dspic33dsc
LIBS:microchip_pic10mcu
LIBS:microchip_pic12mcu
LIBS:microchip_pic16mcu
LIBS:microchip_pic18mcu
LIBS:microchip_pic32mcu
LIBS:microcontrollers
LIBS:motor_drivers
LIBS:motorola
LIBS:motors
LIBS:msp430
LIBS:nordicsemi
LIBS:NXP
LIBS:nxp_armmcu
LIBS:onsemi
LIBS:opto
LIBS:Oscillators
LIBS:philips
LIBS:power
LIBS:powerint
LIBS:Power_Management
LIBS:pspice
LIBS:references
LIBS:regul
LIBS:relays
LIBS:rfcom
LIBS:sensors
LIBS:silabs
LIBS:siliconi
LIBS:spice
LIBS:spice-basic
LIBS:stm8
LIBS:stm32
LIBS:supertex
LIBS:switches
LIBS:texas
LIBS:transf
LIBS:transistors
LIBS:triac_thyristor
LIBS:ttl_ieee
LIBS:valves
LIBS:video
LIBS:w_analog
LIBS:w_connectors
LIBS:w_device
LIBS:wiznet
LIBS:w_logic
LIBS:w_memory
LIBS:w_microcontrollers
LIBS:w_opto
LIBS:Worldsemi
LIBS:w_relay
LIBS:w_rtx
LIBS:w_transistor
LIBS:w_vacuum
LIBS:Xicor
LIBS:xilinx
LIBS:zetex
LIBS:Zilog
LIBS:Electronic_Dc_Load-cache
EELAYER 26 0
EELAYER END
$Descr A3 16535 11693
encoding utf-8
Sheet 1 1
Title ""
Date "26/10/2017"
Rev "5.0"
Comp ""
Comment1 ""
Comment2 ""
Comment3 ""
Comment4 ""
$EndDescr
$Comp
L CP1 C2
U 1 1 58A2FDF4
P 900 1600
F 0 "C2" H 1015 1646 50  0000 L CNN
F 1 "470uF" H 950 1450 50  0000 L CNN
F 2 "w_capacitors:CP_12.5x20mm" H -450 300 50  0001 C CNN
F 3 "" H -450 300 50  0001 C CNN
	1    900  1600
	1    0    0    -1  
$EndComp
$Comp
L C C4
U 1 1 58A2FE58
P 1300 1600
F 0 "C4" H 1415 1646 50  0000 L CNN
F 1 "100nF" H 1400 1450 50  0000 L CNN
F 2 "w_capacitors:cnp_6mm_disc" H -12 -150 50  0001 C CNN
F 3 "" H -50 0   50  0001 C CNN
	1    1300 1600
	1    0    0    -1  
$EndComp
$Comp
L C C6
U 1 1 58A2FED6
P 2500 1600
F 0 "C6" H 2615 1646 50  0000 L CNN
F 1 "100nF" H 2600 1450 50  0000 L CNN
F 2 "w_capacitors:cnp_6mm_disc" H 1188 -150 50  0001 C CNN
F 3 "" H 1150 0   50  0001 C CNN
	1    2500 1600
	1    0    0    -1  
$EndComp
$Comp
L CP1 C9
U 1 1 58A2FF27
P 2900 1600
F 0 "C9" H 3015 1646 50  0000 L CNN
F 1 "100uF" H 3000 1450 50  0000 L CNN
F 2 "w_capacitors:CP_6.3x11mm" H 1550 300 50  0001 C CNN
F 3 "" H 1550 300 50  0001 C CNN
	1    2900 1600
	1    0    0    -1  
$EndComp
$Comp
L HEADER_1_PW_OUT J1
U 1 1 58A2FF85
P 700 2250
F 0 "J1" V 640 2328 60  0000 L CNN
F 1 "HEADER_1" V 746 2328 60  0001 L CNN
F 2 "Wire_Pads:SolderWirePad_single_SMD_5x10mm" H -200 300 60  0001 C CNN
F 3 "" H -200 300 60  0000 C CNN
	1    700  2250
	0    1    1    0   
$EndComp
$Comp
L HEADER_1_PW_OUT J4
U 1 1 58A30012
P 1450 2250
F 0 "J4" V 1390 2328 60  0000 L CNN
F 1 "HEADER_1" V 1496 2328 60  0001 L CNN
F 2 "Wire_Pads:SolderWirePad_single_SMD_5x10mm" H 550 300 60  0001 C CNN
F 3 "" H 550 300 60  0000 C CNN
	1    1450 2250
	0    1    1    0   
$EndComp
Text Notes 650  2600 0    60   ~ 0
+ 15V  to  18V\n       Input
Text Notes 1400 2500 0    60   ~ 0
-
$Comp
L GNDD #PWR11
U 1 1 58A30279
P 2900 2100
F 0 "#PWR11" H -50 -100 50  0001 C CNN
F 1 "GNDD" H 2900 1950 50  0000 C CNN
F 2 "" H -50 50  50  0001 C CNN
F 3 "" H -50 50  50  0001 C CNN
	1    2900 2100
	1    0    0    -1  
$EndComp
$Comp
L +12V #PWR10
U 1 1 58A3029D
P 2900 1200
F 0 "#PWR10" H 50  50  50  0001 C CNN
F 1 "+12V" H 2915 1373 50  0000 C CNN
F 2 "" H 50  200 50  0001 C CNN
F 3 "" H 50  200 50  0001 C CNN
	1    2900 1200
	1    0    0    -1  
$EndComp
Text Notes 2675 650  0    60   ~ 0
POWER
$Comp
L 78xx_Reg U6
U 1 1 58A3066C
P 3750 1450
F 0 "U6" H 3750 1697 60  0000 C CNN
F 1 "L7805CP" H 3750 1591 60  0000 C CNN
F 2 "w_to:to220_std" H 1600 -500 60  0001 C CNN
F 3 "" H 1600 -500 60  0000 C CNN
	1    3750 1450
	1    0    0    -1  
$EndComp
$Comp
L C C14
U 1 1 58A30760
P 4300 1600
F 0 "C14" H 4415 1646 50  0000 L CNN
F 1 "100nF" H 4400 1450 50  0000 L CNN
F 2 "w_capacitors:cnp_6mm_disc" H 2988 -150 50  0001 C CNN
F 3 "" H 2950 0   50  0001 C CNN
	1    4300 1600
	1    0    0    -1  
$EndComp
$Comp
L CP1 C16
U 1 1 58A307D8
P 4750 1600
F 0 "C16" H 4865 1646 50  0000 L CNN
F 1 "10uF" H 4850 1450 50  0000 L CNN
F 2 "w_capacitors:CP_5x11mm" H 3400 300 50  0001 C CNN
F 3 "" H 3400 300 50  0001 C CNN
	1    4750 1600
	1    0    0    -1  
$EndComp
$Comp
L +5V #PWR18
U 1 1 58A308D5
P 4750 1200
F 0 "#PWR18" H 50  -100 50  0001 C CNN
F 1 "+5V" H 4765 1373 50  0000 C CNN
F 2 "" H 50  50  50  0001 C CNN
F 3 "" H 50  50  50  0001 C CNN
	1    4750 1200
	1    0    0    -1  
$EndComp
$Comp
L Arduino_Nano_Header J8
U 1 1 58A325F0
P 13625 7900
F 0 "J8" H 13625 8750 60  0000 C CNN
F 1 "Arduino_Nano_Header" H 13625 7000 60  0001 C CNN
F 2 "w_conn_misc:arduino_nano_header" H 9725 4750 60  0001 C CNN
F 3 "" H 9725 4750 60  0000 C CNN
	1    13625 7900
	1    0    0    -1  
$EndComp
$Comp
L C C37
U 1 1 58A3273E
P 14825 6950
F 0 "C37" H 14940 6996 50  0000 L CNN
F 1 "100nF" H 14850 6850 50  0000 L CNN
F 2 "Capacitors_SMD:C_0805_HandSoldering" H 13513 5200 50  0001 C CNN
F 3 "" H 13475 5350 50  0001 C CNN
	1    14825 6950
	1    0    0    -1  
$EndComp
$Comp
L CP1 C38
U 1 1 58A327DC
P 15225 6950
F 0 "C38" H 15340 6996 50  0000 L CNN
F 1 "10uF" H 15275 6825 50  0000 L CNN
F 2 "Capacitors_SMD:C_0805_HandSoldering" H 13875 5650 50  0001 C CNN
F 3 "" H 13875 5650 50  0001 C CNN
	1    15225 6950
	1    0    0    -1  
$EndComp
NoConn ~ 13975 8400
NoConn ~ 13975 7400
NoConn ~ 13275 7400
NoConn ~ 13975 8500
NoConn ~ 13975 7200
NoConn ~ 13275 7200
NoConn ~ 13275 7300
$Comp
L +5V #PWR55
U 1 1 58A32EFF
P 15025 6800
F 0 "#PWR55" H 10325 5500 50  0001 C CNN
F 1 "+5V" H 15040 6973 50  0000 C CNN
F 2 "" H 10325 5650 50  0001 C CNN
F 3 "" H 10325 5650 50  0001 C CNN
	1    15025 6800
	1    0    0    -1  
$EndComp
$Comp
L Rotary_Encoder SW1
U 1 1 58A3304C
P 12225 7800
F 0 "SW1" H 12225 7475 50  0000 C CNN
F 1 "Rotary_Encoder" H 12225 7550 50  0000 C CNN
F 2 "w_pin_strip:pin_strip_3" H 10175 3510 50  0001 C CNN
F 3 "" H 10275 3610 50  0001 C CNN
	1    12225 7800
	-1   0    0    1   
$EndComp
$Comp
L R R26
U 1 1 58A333DB
P 12625 7150
F 0 "R26" V 12525 7150 50  0000 L CNN
F 1 "10k" V 12625 7100 50  0000 L CNN
F 2 "Resistors_SMD:R_1206_HandSoldering" V 10755 3400 50  0001 C CNN
F 3 "" H 10825 3400 50  0001 C CNN
	1    12625 7150
	1    0    0    -1  
$EndComp
$Comp
L R R27
U 1 1 58A3344E
P 12825 7150
F 0 "R27" V 12925 7150 50  0000 L CNN
F 1 "10k" V 12825 7100 50  0000 L CNN
F 2 "Resistors_SMD:R_1206_HandSoldering" V 10955 3400 50  0001 C CNN
F 3 "" H 11025 3400 50  0001 C CNN
	1    12825 7150
	1    0    0    -1  
$EndComp
$Comp
L +5V #PWR45
U 1 1 58A3355C
P 12725 6900
F 0 "#PWR45" H 10925 3600 50  0001 C CNN
F 1 "+5V" H 12740 7073 50  0000 C CNN
F 2 "" H 10925 3750 50  0001 C CNN
F 3 "" H 10925 3750 50  0001 C CNN
	1    12725 6900
	1    0    0    -1  
$EndComp
$Comp
L SW_PUSH SW2
U 1 1 58A33688
P 14525 7750
F 0 "SW2" H 14525 7875 39  0000 C CNN
F 1 "Load On/Off" H 14600 7675 39  0000 C CNN
F 2 "w_conn_kk100:kk100_22-23-2021" H 10975 3100 60  0001 C CNN
F 3 "" H 10975 3100 60  0000 C CNN
	1    14525 7750
	1    0    0    -1  
$EndComp
Text Label 14075 7900 0    39   ~ 0
SDA
Text Label 14075 7800 0    39   ~ 0
SCL
Text Notes 13525 6500 0    60   ~ 0
ARDUINO_NANO
$Comp
L LCD20X4 DS1
U 1 1 58A325FC
P 1550 8050
F 0 "DS1" H 750 8450 50  0000 C CNN
F 1 "LCD20X4" H 2500 8450 50  0000 C CNN
F 2 "w_pin_strip:pin_strip_4" H -3500 2750 50  0001 C CIN
F 3 "" H -3500 2800 50  0001 C CNN
	1    1550 8050
	1    0    0    -1  
$EndComp
$Comp
L C C11
U 1 1 58A33125
P 3500 8050
F 0 "C11" H 3615 8096 50  0000 L CNN
F 1 "100nF" H 3550 7950 50  0000 L CNN
F 2 "Capacitors_SMD:C_0805_HandSoldering" H 2188 6300 50  0001 C CNN
F 3 "" H 2150 6450 50  0001 C CNN
	1    3500 8050
	1    0    0    -1  
$EndComp
$Comp
L CP1 C12
U 1 1 58A3312B
P 3900 8050
F 0 "C12" H 4015 8096 50  0000 L CNN
F 1 "10uF" H 4000 7950 50  0000 L CNN
F 2 "Capacitors_SMD:C_0805_HandSoldering" H 2550 6750 50  0001 C CNN
F 3 "" H 2550 6750 50  0001 C CNN
	1    3900 8050
	1    0    0    -1  
$EndComp
$Comp
L +5V #PWR14
U 1 1 58A33137
P 3700 7450
F 0 "#PWR14" H -1000 6150 50  0001 C CNN
F 1 "+5V" H 3715 7623 50  0000 C CNN
F 2 "" H -1000 6300 50  0001 C CNN
F 3 "" H -1000 6300 50  0001 C CNN
	1    3700 7450
	1    0    0    -1  
$EndComp
Text Label 3300 8100 2    39   ~ 0
SCL
Text Label 3300 8000 2    39   ~ 0
SDA
$Comp
L R R8
U 1 1 58A3403C
P 3050 7650
F 0 "R8" V 2950 7650 50  0000 L CNN
F 1 "4.7k" V 3050 7575 50  0000 L CNN
F 2 "Resistors_SMD:R_1206_HandSoldering" V 1180 3900 50  0001 C CNN
F 3 "" H 1250 3900 50  0001 C CNN
	1    3050 7650
	1    0    0    -1  
$EndComp
$Comp
L R R9
U 1 1 58A34042
P 3250 7650
F 0 "R9" V 3350 7650 50  0000 L CNN
F 1 "4.7k" V 3250 7575 50  0000 L CNN
F 2 "Resistors_SMD:R_1206_HandSoldering" V 1380 3900 50  0001 C CNN
F 3 "" H 1450 3900 50  0001 C CNN
	1    3250 7650
	1    0    0    -1  
$EndComp
Text Notes 2250 7100 0    60   ~ 0
LCD
$Comp
L REF5040 U10
U 1 1 58A350B9
P 7550 6425
F 0 "U10" H 7550 6792 50  0000 C CNN
F 1 "REF5040" H 7550 6701 50  0000 C CNN
F 2 "w_smd_dil:so-8" H 1800 2875 50  0001 C CIN
F 3 "" H 1800 2725 50  0001 C CNN
	1    7550 6425
	1    0    0    -1  
$EndComp
$Comp
L MCP7940N U14
U 1 1 58A3515A
P 14450 4975
F 0 "U14" H 14450 4489 50  0000 C CNN
F 1 "MCP79410" H 14450 4398 50  0000 C CNN
F 2 "w_smd_dil:so-8" H 7200 1775 50  0001 C CNN
F 3 "" H 7200 1775 50  0001 C CNN
	1    14450 4975
	1    0    0    -1  
$EndComp
NoConn ~ 14550 4575
NoConn ~ 14050 5075
$Comp
L Crystal_GND3_Small Y1
U 1 1 58A4169F
P 15000 4975
F 0 "Y1" V 15046 5063 50  0000 L CNN
F 1 "32.768Khz" V 15350 4775 50  0000 L CNN
F 2 "Electronic_Dc_Load:Crystal_C38-LF_d3.0mm_l8.0mm_Horizontal_1EP_style1" H 8300 -675 50  0001 C CNN
F 3 "" H 8300 -675 50  0001 C CNN
	1    15000 4975
	0    -1   -1   0   
$EndComp
$Comp
L C C40
U 1 1 58A41A0D
P 15350 4825
F 0 "C40" V 15200 4825 50  0000 L CNN
F 1 "10pF" V 15250 4600 50  0000 L CNN
F 2 "Capacitors_SMD:C_0805_HandSoldering" H 14038 3075 50  0001 C CNN
F 3 "" H 14000 3225 50  0001 C CNN
	1    15350 4825
	0    1    1    0   
$EndComp
$Comp
L C C41
U 1 1 58A41AFA
P 15350 5125
F 0 "C41" V 15500 5125 50  0000 L CNN
F 1 "10pF" V 15250 4900 50  0000 L CNN
F 2 "Capacitors_SMD:C_0805_HandSoldering" H 14038 3375 50  0001 C CNN
F 3 "" H 14000 3525 50  0001 C CNN
	1    15350 5125
	0    1    1    0   
$EndComp
$Comp
L C C39
U 1 1 58A426FC
P 15350 4525
F 0 "C39" V 15300 4575 50  0000 L CNN
F 1 "100nF" V 15200 4425 50  0000 L CNN
F 2 "Capacitors_SMD:C_0805_HandSoldering" H 14038 2775 50  0001 C CNN
F 3 "" H 14000 2925 50  0001 C CNN
	1    15350 4525
	0    1    1    0   
$EndComp
Text Label 13800 4875 0    39   ~ 0
SDA
Text Label 13800 4775 0    39   ~ 0
SCL
$Comp
L +5V #PWR49
U 1 1 58A43288
P 14150 4525
F 0 "#PWR49" H 9450 3225 50  0001 C CNN
F 1 "+5V" H 14165 4698 50  0000 C CNN
F 2 "" H 9450 3375 50  0001 C CNN
F 3 "" H 9450 3375 50  0001 C CNN
	1    14150 4525
	1    0    0    -1  
$EndComp
Text Notes 14625 4225 0    60   ~ 0
RTC
$Comp
L CP1 C20
U 1 1 58A442F9
P 6750 6475
F 0 "C20" H 6865 6521 50  0000 L CNN
F 1 "1uF" H 6850 6325 50  0000 L CNN
F 2 "w_capacitors:CP_5x11mm" H 5400 5175 50  0001 C CNN
F 3 "" H 5400 5175 50  0001 C CNN
	1    6750 6475
	1    0    0    -1  
$EndComp
$Comp
L CP1 C26
U 1 1 58A44424
P 8325 6475
F 0 "C26" H 8440 6521 50  0000 L CNN
F 1 "10uF" H 8425 6325 50  0000 L CNN
F 2 "Capacitors_SMD:C_0805_HandSoldering" H 6975 5175 50  0001 C CNN
F 3 "" H 6975 5175 50  0001 C CNN
	1    8325 6475
	1    0    0    -1  
$EndComp
NoConn ~ 7050 6525
$Comp
L +5VA #PWR23
U 1 1 58A4476C
P 6750 6150
F 0 "#PWR23" H 2050 4850 50  0001 C CNN
F 1 "+5VA" H 6765 6323 50  0000 C CNN
F 2 "" H 2050 5000 50  0001 C CNN
F 3 "" H 2050 5000 50  0001 C CNN
	1    6750 6150
	1    0    0    -1  
$EndComp
$Comp
L MCP3426 U8
U 1 1 58A45E33
P 6250 2150
F 0 "U8" H 6550 2625 60  0000 C CNN
F 1 "MCP3426" H 6475 1725 60  0000 C CNN
F 2 "w_smd_dil:so-8" H 425 -975 60  0001 C CNN
F 3 "" H 425 -975 60  0001 C CNN
	1    6250 2150
	1    0    0    -1  
$EndComp
$Comp
L MCP609 U1
U 3 1 58A45F4F
P 8550 2000
F 0 "U1" H 8600 2175 50  0000 L CNN
F 1 "MCP609" H 8600 1825 50  0000 L CNN
F 2 "w_smd_dil:so-14" H 650 -150 50  0001 C CNN
F 3 "" H 750 -50 50  0001 C CNN
	3    8550 2000
	-1   0    0    -1  
$EndComp
$Comp
L C C19
U 1 1 58A46597
P 6650 1225
F 0 "C19" H 6765 1271 50  0000 L CNN
F 1 "100nF" H 6675 1100 50  0000 L CNN
F 2 "Capacitors_SMD:C_0805_HandSoldering" H 5338 -525 50  0001 C CNN
F 3 "" H 5300 -375 50  0001 C CNN
	1    6650 1225
	1    0    0    -1  
$EndComp
$Comp
L CP1 C21
U 1 1 58A4659D
P 7050 1225
F 0 "C21" H 7165 1271 50  0000 L CNN
F 1 "10uF" H 7125 1100 50  0000 L CNN
F 2 "Capacitors_SMD:C_0805_HandSoldering" H 5700 -75 50  0001 C CNN
F 3 "" H 5700 -75 50  0001 C CNN
	1    7050 1225
	1    0    0    -1  
$EndComp
$Comp
L +5VA #PWR24
U 1 1 58A465A9
P 6850 975
F 0 "#PWR24" H 2150 -325 50  0001 C CNN
F 1 "+5VA" H 6865 1148 50  0000 C CNN
F 2 "" H 2150 -175 50  0001 C CNN
F 3 "" H 2150 -175 50  0001 C CNN
	1    6850 975 
	1    0    0    -1  
$EndComp
Text Label 5500 2200 0    39   ~ 0
SCL
Text Label 5500 2050 0    39   ~ 0
SDA
$Comp
L MCP609 U1
U 2 1 58A478E7
P 8525 3225
F 0 "U1" H 8550 3400 50  0000 L CNN
F 1 "MCP609" H 8600 3025 50  0000 L CNN
F 2 "w_smd_dil:so-14" H -600 750 50  0001 C CNN
F 3 "" H -500 850 50  0001 C CNN
	2    8525 3225
	-1   0    0    -1  
$EndComp
$Comp
L C C22
U 1 1 58A47E6B
P 7375 2100
F 0 "C22" H 7490 2146 50  0000 L CNN
F 1 "100nF" H 7450 2000 50  0000 L CNN
F 2 "Capacitors_SMD:C_0805_HandSoldering" H 6063 350 50  0001 C CNN
F 3 "" H 6025 500 50  0001 C CNN
	1    7375 2100
	1    0    0    -1  
$EndComp
$Comp
L R R12
U 1 1 58A4844C
P 7950 2000
F 0 "R12" V 7850 2000 50  0000 C CNN
F 1 "100" V 7950 2000 50  0000 C CNN
F 2 "Resistors_SMD:R_1206_HandSoldering" V 80  200 50  0001 C CNN
F 3 "" H 150 200 50  0001 C CNN
	1    7950 2000
	0    1    1    0   
$EndComp
$Comp
L R R11
U 1 1 58A48E31
P 7775 3225
F 0 "R11" V 7675 3225 50  0000 C CNN
F 1 "100" V 7775 3225 50  0000 C CNN
F 2 "Resistors_SMD:R_1206_HandSoldering" V -95 1425 50  0001 C CNN
F 3 "" H -25 1425 50  0001 C CNN
	1    7775 3225
	0    1    1    0   
$EndComp
$Comp
L C C24
U 1 1 58A48F1F
P 7625 3550
F 0 "C24" H 7740 3596 50  0000 L CNN
F 1 "100nF" H 7675 3450 50  0000 L CNN
F 2 "Capacitors_SMD:C_0805_HandSoldering" H 6313 1800 50  0001 C CNN
F 3 "" H 6275 1950 50  0001 C CNN
	1    7625 3550
	1    0    0    -1  
$EndComp
$Comp
L C C28
U 1 1 58A49369
P 9050 1200
F 0 "C28" H 9165 1246 50  0000 L CNN
F 1 "100nF" H 9075 1075 50  0000 L CNN
F 2 "Capacitors_SMD:C_0805_HandSoldering" H 7738 -550 50  0001 C CNN
F 3 "" H 7700 -400 50  0001 C CNN
	1    9050 1200
	1    0    0    -1  
$EndComp
$Comp
L CP1 C29
U 1 1 58A4936F
P 9450 1200
F 0 "C29" H 9565 1246 50  0000 L CNN
F 1 "10uF" H 9525 1075 50  0000 L CNN
F 2 "Capacitors_SMD:C_0805_HandSoldering" H 8100 -100 50  0001 C CNN
F 3 "" H 8100 -100 50  0001 C CNN
	1    9450 1200
	1    0    0    -1  
$EndComp
$Comp
L +5VA #PWR31
U 1 1 58A49375
P 9250 950
F 0 "#PWR31" H 4550 -350 50  0001 C CNN
F 1 "+5VA" H 9265 1123 50  0000 C CNN
F 2 "" H 4550 -200 50  0001 C CNN
F 3 "" H 4550 -200 50  0001 C CNN
	1    9250 950 
	1    0    0    -1  
$EndComp
$Comp
L R R14
U 1 1 58A49E14
P 9300 2150
F 0 "R14" V 9200 2150 50  0000 C CNN
F 1 "10K" V 9300 2150 50  0000 C CNN
F 2 "Resistors_SMD:R_1206_HandSoldering" V 1430 350 50  0001 C CNN
F 3 "" H 1500 350 50  0001 C CNN
	1    9300 2150
	-1   0    0    1   
$EndComp
$Comp
L ZENER D1
U 1 1 58A4A31C
P 9500 2175
F 0 "D1" V 9563 2122 40  0000 R CNN
F 1 "5.1V ZENER" V 9487 2122 40  0000 R CNN
F 2 "w_smd_diode:sod123" H 100 -700 60  0001 C CNN
F 3 "" H 100 -700 60  0000 C CNN
	1    9500 2175
	0    -1   -1   0   
$EndComp
$Comp
L R R16
U 1 1 58A4C3E3
P 9450 3125
F 0 "R16" V 9550 3125 50  0000 C CNN
F 1 "10K" V 9450 3125 50  0000 C CNN
F 2 "Resistors_SMD:R_1206_HandSoldering" V 1580 1325 50  0001 C CNN
F 3 "" H 1650 1325 50  0001 C CNN
	1    9450 3125
	0    -1   -1   0   
$EndComp
$Comp
L HEADER_1 J5
U 1 1 58A4C901
P 11875 1125
F 0 "J5" H 11875 1250 60  0000 L CNN
F 1 "HEADER_1" V 11921 1203 60  0001 L CNN
F 2 "Wire_Pads:SolderWirePad_single_SMD_5x10mm" H 10975 -825 60  0001 C CNN
F 3 "" H 10975 -825 60  0000 C CNN
	1    11875 1125
	1    0    0    -1  
$EndComp
$Comp
L HEADER_1 J6
U 1 1 58A4CD67
P 11875 1425
F 0 "J6" H 11875 1550 60  0000 L CNN
F 1 "HEADER_1" V 11921 1503 60  0001 L CNN
F 2 "Wire_Pads:SolderWirePad_single_SMD_5x10mm" H 10975 -525 60  0001 C CNN
F 3 "" H 10975 -525 60  0000 C CNN
	1    11875 1425
	1    0    0    -1  
$EndComp
Text Notes 12050 1150 0    60   ~ 0
+
Text Notes 12050 1475 0    60   ~ 0
-
Text Notes 12050 1300 0    60   ~ 0
LOAD
$Comp
L R R19
U 1 1 58A4E377
P 10375 3350
F 0 "R19" V 10475 3350 50  0000 C CNN
F 1 "0R1" V 10375 3350 50  0000 C CNN
F 2 "Electronic_Dc_Load:Wire_resistor_Pad_SMD_5x10mm" V 2505 1550 50  0001 C CNN
F 3 "" H 2575 1550 50  0001 C CNN
F 4 "1% 25W" V 10375 3350 60  0001 C CNN "NOTE"
	1    10375 3350
	1    0    0    -1  
$EndComp
$Comp
L MOS_N Q1
U 1 1 58A4E53E
P 10275 2700
F 0 "Q1" H 10450 2700 70  0000 L CNN
F 1 "IXTH110N10L2" H 10450 2600 39  0000 L CNN
F 2 "Electronic_Dc_Load:MosfetWirePad_SMD_5x10mm" H 375 -175 60  0001 C CNN
F 3 "" H 375 -175 60  0000 C CNN
	1    10275 2700
	1    0    0    -1  
$EndComp
Text Label 9875 3000 0    60   ~ 0
SOURCE1
Text Label 9525 2700 0    60   ~ 0
GATE1
Text Notes 10050 3425 0    39   ~ 0
0.1 OHM\n1% 25W
$Comp
L FUSE_JOIN_POINT F1
U 1 1 58A509DA
P 10375 2250
F 0 "F1" H 10350 2125 40  0000 L CNN
F 1 "10A QUICK FUSE" V 10425 1700 40  0001 L CNN
F 2 "Wire_Pads:SolderWirePad_single_SMD_5x10mm" H 450 0   60  0001 C CNN
F 3 "" H 450 0   60  0000 C CNN
	1    10375 2250
	0    -1   -1   0   
$EndComp
Text Notes 10825 2325 0    39   ~ 0
10A\nQUICK BLOW\nFUSE x 2
Text Notes 7825 650  0    60   ~ 0
VOLTAGE AND CURRENT SENSOR
$Comp
L MCP4725 U9
U 1 1 58A53519
P 7250 5325
F 0 "U9" H 7275 5772 60  0000 C CNN
F 1 "MCP4725" H 7275 5666 60  0000 C CNN
F 2 "TO_SOT_Packages_SMD:SOT-23-6_Handsoldering" H -650 575 60  0001 C CNN
F 3 "" H -650 575 60  0001 C CNN
	1    7250 5325
	1    0    0    -1  
$EndComp
$Comp
L R R15
U 1 1 58A542D1
P 9300 5200
F 0 "R15" V 9400 5200 50  0000 C CNN
F 1 "50K" V 9300 5200 50  0000 C CNN
F 2 "Resistors_SMD:R_0805_HandSoldering" V 1430 3400 50  0001 C CNN
F 3 "" H 1500 3400 50  0001 C CNN
F 4 "0.1%" V 9300 5200 60  0001 C CNN "NOTE"
	1    9300 5200
	0    -1   -1   0   
$EndComp
$Comp
L R R18
U 1 1 58A546D0
P 10100 5600
F 0 "R18" V 10200 5600 50  0000 C CNN
F 1 "12K" V 10100 5600 50  0000 C CNN
F 2 "Resistors_SMD:R_0805_HandSoldering" V 2230 3800 50  0001 C CNN
F 3 "" H 2300 3800 50  0001 C CNN
F 4 "0.1%" V 10100 5600 60  0001 C CNN "NOTE"
	1    10100 5600
	1    0    0    -1  
$EndComp
$Comp
L R R23
U 1 1 58A5488B
P 10675 6000
F 0 "R23" V 10775 6000 50  0000 C CNN
F 1 "1K" V 10675 6000 50  0000 C CNN
F 2 "Resistors_SMD:R_1206_HandSoldering" V 2805 4200 50  0001 C CNN
F 3 "" H 2875 4200 50  0001 C CNN
	1    10675 6000
	0    1    1    0   
$EndComp
$Comp
L R R21
U 1 1 58A54965
P 10525 6275
F 0 "R21" V 10625 6275 50  0000 C CNN
F 1 "10K" V 10525 6275 50  0000 C CNN
F 2 "Resistors_SMD:R_1206_HandSoldering" V 2655 4475 50  0001 C CNN
F 3 "" H 2725 4475 50  0001 C CNN
	1    10525 6275
	1    0    0    -1  
$EndComp
$Comp
L R R10
U 1 1 58A54AB9
P 6725 4975
F 0 "R10" V 6825 4975 50  0000 C CNN
F 1 "4K7" V 6725 4975 50  0000 C CNN
F 2 "Resistors_SMD:R_0805_HandSoldering" V -1145 3175 50  0001 C CNN
F 3 "" H -1075 3175 50  0001 C CNN
	1    6725 4975
	1    0    0    -1  
$EndComp
$Comp
L +5VA #PWR22
U 1 1 58A54D28
P 6725 4725
F 0 "#PWR22" H 2025 3425 50  0001 C CNN
F 1 "+5VA" H 6740 4898 50  0000 C CNN
F 2 "" H 2025 3575 50  0001 C CNN
F 3 "" H 2025 3575 50  0001 C CNN
	1    6725 4725
	1    0    0    -1  
$EndComp
Text Label 6675 5425 0    39   ~ 0
SDA
Text Label 6675 5275 0    39   ~ 0
SCL
$Comp
L MCP609 U1
U 4 1 58A55F99
P 8675 5200
F 0 "U1" H 8675 5350 50  0000 L CNN
F 1 "MCP609" H 8675 5025 50  0000 L CNN
F 2 "w_smd_dil:so-14" H -625 475 50  0001 C CNN
F 3 "" H -525 575 50  0001 C CNN
	4    8675 5200
	1    0    0    -1  
$EndComp
$Comp
L R R13
U 1 1 58A56193
P 8075 5250
F 0 "R13" V 8175 5250 50  0000 C CNN
F 1 "10K" V 8075 5250 50  0000 C CNN
F 2 "Resistors_SMD:R_1206_HandSoldering" V 205 3450 50  0001 C CNN
F 3 "" H 275 3450 50  0001 C CNN
	1    8075 5250
	1    0    0    -1  
$EndComp
$Comp
L C C30
U 1 1 58A579FC
P 9925 5600
F 0 "C30" H 9675 5650 50  0000 L CNN
F 1 "100nF" H 9650 5475 50  0000 L CNN
F 2 "Capacitors_SMD:C_0805_HandSoldering" H 8613 3850 50  0001 C CNN
F 3 "" H 8575 4000 50  0001 C CNN
	1    9925 5600
	1    0    0    -1  
$EndComp
$Comp
L C C34
U 1 1 58A58DB9
P 11075 6000
F 0 "C34" V 11200 5800 50  0000 L CNN
F 1 "1nF" V 11200 6050 50  0000 L CNN
F 2 "Capacitors_SMD:C_0805_HandSoldering" H 9763 4250 50  0001 C CNN
F 3 "" H 9725 4400 50  0001 C CNN
	1    11075 6000
	0    1    1    0   
$EndComp
$Comp
L R R17
U 1 1 58A5972D
P 9925 2700
F 0 "R17" V 10025 2700 50  0000 C CNN
F 1 "100" V 9925 2700 50  0000 C CNN
F 2 "Resistors_SMD:R_1206_HandSoldering" V 2055 900 50  0001 C CNN
F 3 "" H 2125 900 50  0001 C CNN
	1    9925 2700
	0    -1   -1   0   
$EndComp
Text Label 11525 5300 2    60   ~ 0
GATE1
Text Label 11225 6425 2    60   ~ 0
SOURCE1
Text Notes 8350 4175 0    60   ~ 0
CURRENT CONTROL
$Comp
L +5VA #PWR47
U 1 1 58A5E058
P 13375 2925
F 0 "#PWR47" H 8675 1625 50  0001 C CNN
F 1 "+5VA" H 13390 3098 50  0000 C CNN
F 2 "" H 8675 1775 50  0001 C CNN
F 3 "" H 8675 1775 50  0001 C CNN
	1    13375 2925
	1    0    0    -1  
$EndComp
Text Label 14100 3275 2    59   ~ 0
TEMP1.
Text Notes 13150 2675 0    60   ~ 0
TEMP. SENSOR 1
Text Label 13125 7700 0    39   ~ 0
FAN
NoConn ~ 13975 7600
$Comp
L HEADER_8 J7
U 1 1 58A6FBDC
P 13050 8250
F 0 "J7" H 13275 8525 60  0000 C CNN
F 1 "KEYDAD" H 13400 8625 60  0000 C CNN
F 2 "w_pin_strip:pin_strip_8" H 11425 3625 60  0001 C CNN
F 3 "" H 11425 3625 60  0000 C CNN
	1    13050 8250
	-1   0    0    1   
$EndComp
Text Notes 12575 10925 0    59   ~ 0
ELECTRONIC DC LOAD (Based on SCULLCOM HOBBY ELECTRONICS)
Text Notes 11900 10475 0    59   ~ 0
Autor: JGReyes
Text Notes 11875 10225 0    118  ~ 0
WWW.CIRCUITEANDO.NET
Text Notes 9200 4975 0    39   ~ 0
R15 & R18\nPRECISION 0.1%
$Comp
L 78xx_Reg U2
U 1 1 58BD682C
P 1950 1450
F 0 "U2" H 1950 1697 60  0000 C CNN
F 1 "L78S12CV" H 1950 1591 60  0000 C CNN
F 2 "w_to:to220_std" H 0   -75 60  0001 C CNN
F 3 "" H 0   -75 60  0000 C CNN
	1    1950 1450
	1    0    0    -1  
$EndComp
$Comp
L GNDD #PWR44
U 1 1 58BDC928
P 12525 8150
F 0 "#PWR44" H 11325 3225 50  0001 C CNN
F 1 "GNDD" H 12530 7977 50  0000 C CNN
F 2 "" H 11325 3475 50  0001 C CNN
F 3 "" H 11325 3475 50  0001 C CNN
	1    12525 8150
	1    0    0    -1  
$EndComp
$Comp
L GNDD #PWR46
U 1 1 58BDCC4A
P 12950 7500
F 0 "#PWR46" H 11325 3225 50  0001 C CNN
F 1 "GNDD" H 12925 7350 39  0000 C CNN
F 2 "" H 11325 3475 50  0001 C CNN
F 3 "" H 11325 3475 50  0001 C CNN
	1    12950 7500
	1    0    0    -1  
$EndComp
$Comp
L GNDD #PWR50
U 1 1 58BDD0EB
P 14150 7300
F 0 "#PWR50" H 11300 3200 50  0001 C CNN
F 1 "GNDD" H 14150 7150 50  0000 C CNN
F 2 "" H 11300 3450 50  0001 C CNN
F 3 "" H 11300 3450 50  0001 C CNN
	1    14150 7300
	1    0    0    -1  
$EndComp
$Comp
L GNDD #PWR56
U 1 1 58BDD845
P 15025 7850
F 0 "#PWR56" H 11275 3550 50  0001 C CNN
F 1 "GNDD" H 15175 7775 50  0000 C CNN
F 2 "" H 11275 3800 50  0001 C CNN
F 3 "" H 11275 3800 50  0001 C CNN
	1    15025 7850
	1    0    0    -1  
$EndComp
$Comp
L GNDD #PWR9
U 1 1 58BDE11C
P 2875 8250
F 0 "#PWR9" H 2925 8300 50  0001 C CNN
F 1 "GNDD" H 2880 8077 50  0000 C CNN
F 2 "" H -25 1275 50  0001 C CNN
F 3 "" H -25 1275 50  0001 C CNN
	1    2875 8250
	1    0    0    -1  
$EndComp
$Comp
L GNDD #PWR15
U 1 1 58BDE3C0
P 3700 8450
F 0 "#PWR15" H 3750 8500 50  0001 C CNN
F 1 "GNDD" H 3705 8277 50  0000 C CNN
F 2 "" H -50 1175 50  0001 C CNN
F 3 "" H -50 1175 50  0001 C CNN
	1    3700 8450
	1    0    0    -1  
$EndComp
$Comp
L GNDD #PWR58
U 1 1 58BDE6E2
P 15150 5425
F 0 "#PWR58" H 15200 5475 50  0001 C CNN
F 1 "GNDD" H 15155 5252 50  0000 C CNN
F 2 "" H 9050 -1675 50  0001 C CNN
F 3 "" H 9050 -1675 50  0001 C CNN
	1    15150 5425
	1    0    0    -1  
$EndComp
$Comp
L GNDA #PWR27
U 1 1 58BDEED7
P 7550 6900
F 0 "#PWR27" H 7600 6950 50  0001 C CNN
F 1 "GNDA" H 7555 6727 50  0000 C CNN
F 2 "" H 2075 1700 50  0001 C CNN
F 3 "" H 2075 1700 50  0001 C CNN
	1    7550 6900
	1    0    0    -1  
$EndComp
$Comp
L GNDA #PWR48
U 1 1 58BDF1B2
P 13375 3625
F 0 "#PWR48" H 8350 -450 50  0001 C CNN
F 1 "GNDA" H 13375 3475 50  0000 C CNN
F 2 "" H 8350 -200 50  0001 C CNN
F 3 "" H 8350 -200 50  0001 C CNN
	1    13375 3625
	1    0    0    -1  
$EndComp
$Comp
L GNDA #PWR25
U 1 1 58BDF76F
P 6850 1625
F 0 "#PWR25" H 250 -300 50  0001 C CNN
F 1 "GNDA" H 6850 1475 50  0000 C CNN
F 2 "" H 250 -50 50  0001 C CNN
F 3 "" H 250 -50 50  0001 C CNN
	1    6850 1625
	1    0    0    -1  
$EndComp
$Comp
L GNDA #PWR32
U 1 1 58BDFB29
P 9250 1600
F 0 "#PWR32" H 9300 1650 50  0001 C CNN
F 1 "GNDA" H 9255 1427 50  0000 C CNN
F 2 "" H 250 -75 50  0001 C CNN
F 3 "" H 250 -75 50  0001 C CNN
	1    9250 1600
	1    0    0    -1  
$EndComp
$Comp
L GNDA #PWR29
U 1 1 58BDFDBD
P 8650 2450
F 0 "#PWR29" H 8700 2500 50  0001 C CNN
F 1 "GNDA" H 8655 2277 50  0000 C CNN
F 2 "" H 250 -75 50  0001 C CNN
F 3 "" H 250 -75 50  0001 C CNN
	1    8650 2450
	1    0    0    -1  
$EndComp
$Comp
L GND #PWR34
U 1 1 58BDFFC3
P 10375 3675
F 0 "#PWR34" H 10425 3725 50  0001 C CNN
F 1 "GND" H 10475 3575 50  0000 C CNN
F 2 "" H 250 -50 50  0001 C CNN
F 3 "" H 250 -50 50  0001 C CNN
	1    10375 3675
	1    0    0    -1  
$EndComp
$Comp
L GND #PWR43
U 1 1 58BE02A8
P 11775 2050
F 0 "#PWR43" H 11825 2100 50  0001 C CNN
F 1 "GND" H 11925 1975 50  0000 C CNN
F 2 "" H 1150 -475 50  0001 C CNN
F 3 "" H 1150 -475 50  0001 C CNN
	1    11775 2050
	1    0    0    -1  
$EndComp
$Comp
L GNDA #PWR28
U 1 1 58BE0849
P 8075 5875
F 0 "#PWR28" H 8125 5925 50  0001 C CNN
F 1 "GNDA" H 8080 5702 50  0000 C CNN
F 2 "" H -200 650 50  0001 C CNN
F 3 "" H -200 650 50  0001 C CNN
	1    8075 5875
	1    0    0    -1  
$EndComp
$Comp
L GNDA #PWR33
U 1 1 58BE0A96
P 10025 5950
F 0 "#PWR33" H 10075 6000 50  0001 C CNN
F 1 "GNDA" H 10030 5777 50  0000 C CNN
F 2 "" H 300 375 50  0001 C CNN
F 3 "" H 300 375 50  0001 C CNN
	1    10025 5950
	1    0    0    -1  
$EndComp
$Comp
L SW_PUSH SW3
U 1 1 58BE3DFA
P 14525 8100
F 0 "SW3" H 14525 8225 39  0000 C CNN
F 1 "Cursor" H 14525 8000 39  0000 C CNN
F 2 "w_conn_kk100:kk100_22-23-2021" H 10975 3450 60  0001 C CNN
F 3 "" H 10975 3450 60  0000 C CNN
	1    14525 8100
	1    0    0    -1  
$EndComp
$Comp
L OP90GSZ U12
U 1 1 58C00827
P 10825 5300
F 0 "U12" H 10850 5500 50  0000 L CNN
F 1 "OP90GSZ" H 10850 5425 50  0000 L CNN
F 2 "w_smd_dil:so-8" H 500 1000 50  0001 C CNN
F 3 "" H 600 1100 50  0001 C CNN
	1    10825 5300
	1    0    0    -1  
$EndComp
$Comp
L GNDA #PWR36
U 1 1 58C0187A
P 10725 5650
F 0 "#PWR36" H 10775 5700 50  0001 C CNN
F 1 "GNDA" H 10730 5477 50  0000 C CNN
F 2 "" H 1000 75  50  0001 C CNN
F 3 "" H 1000 75  50  0001 C CNN
	1    10725 5650
	1    0    0    -1  
$EndComp
NoConn ~ 10825 5550
NoConn ~ 10925 5550
$Comp
L C C32
U 1 1 58C07255
P 10925 4600
F 0 "C32" H 10950 4675 50  0000 L CNN
F 1 "100nF" H 10950 4475 50  0000 L CNN
F 2 "Capacitors_SMD:C_0805_HandSoldering" H 9613 2850 50  0001 C CNN
F 3 "" H 9575 3000 50  0001 C CNN
	1    10925 4600
	1    0    0    -1  
$EndComp
$Comp
L +12VA #PWR39
U 1 1 58C07AE2
P 11125 4450
F 0 "#PWR39" H 8275 3300 50  0001 C CNN
F 1 "+12VA" H 11140 4623 50  0000 C CNN
F 2 "" H 8275 3450 50  0001 C CNN
F 3 "" H 8275 3450 50  0001 C CNN
	1    11125 4450
	1    0    0    -1  
$EndComp
$Comp
L CP1 C36
U 1 1 58C0725B
P 11300 4600
F 0 "C36" H 11325 4675 50  0000 L CNN
F 1 "10uF" H 11300 4475 50  0000 L CNN
F 2 "Capacitors_SMD:C_0805_HandSoldering" H 9950 3300 50  0001 C CNN
F 3 "" H 9950 3300 50  0001 C CNN
	1    11300 4600
	1    0    0    -1  
$EndComp
$Comp
L GNDA #PWR40
U 1 1 58C07267
P 11125 4775
F 0 "#PWR40" H 11175 4825 50  0001 C CNN
F 1 "GNDA" H 11130 4602 50  0001 C CNN
F 2 "" H 2125 3100 50  0001 C CNN
F 3 "" H 2125 3100 50  0001 C CNN
	1    11125 4775
	1    0    0    -1  
$EndComp
$Comp
L R R22
U 1 1 58C3361F
P 10600 8275
F 0 "R22" V 10700 8275 50  0000 C CNN
F 1 "1K" V 10600 8275 50  0000 C CNN
F 2 "Resistors_SMD:R_1206_HandSoldering" V 2730 6475 50  0001 C CNN
F 3 "" H 2800 6475 50  0001 C CNN
	1    10600 8275
	0    1    1    0   
$EndComp
$Comp
L R R20
U 1 1 58C33625
P 10450 8550
F 0 "R20" V 10550 8550 50  0000 C CNN
F 1 "10K" V 10450 8550 50  0000 C CNN
F 2 "Resistors_SMD:R_1206_HandSoldering" V 2580 6750 50  0001 C CNN
F 3 "" H 2650 6750 50  0001 C CNN
	1    10450 8550
	1    0    0    -1  
$EndComp
$Comp
L C C33
U 1 1 58C3362B
P 11000 8275
F 0 "C33" V 11125 8075 50  0000 L CNN
F 1 "1nF" V 11125 8325 50  0000 L CNN
F 2 "Capacitors_SMD:C_0805_HandSoldering" H 9688 6525 50  0001 C CNN
F 3 "" H 9650 6675 50  0001 C CNN
	1    11000 8275
	0    1    1    0   
$EndComp
Text Label 11450 7575 2    60   ~ 0
GATE2
Text Label 11150 8700 2    60   ~ 0
SOURCE2
$Comp
L OP90GSZ U11
U 1 1 58C33633
P 10750 7575
F 0 "U11" H 10775 7775 50  0000 L CNN
F 1 "OP90GSZ" H 10775 7700 50  0000 L CNN
F 2 "w_smd_dil:so-8" H 425 3275 50  0001 C CNN
F 3 "" H 525 3375 50  0001 C CNN
	1    10750 7575
	1    0    0    -1  
$EndComp
$Comp
L GNDA #PWR35
U 1 1 58C33639
P 10650 7925
F 0 "#PWR35" H 10700 7975 50  0001 C CNN
F 1 "GNDA" H 10655 7752 50  0000 C CNN
F 2 "" H 925 2350 50  0001 C CNN
F 3 "" H 925 2350 50  0001 C CNN
	1    10650 7925
	1    0    0    -1  
$EndComp
NoConn ~ 10750 7825
NoConn ~ 10850 7825
$Comp
L C C31
U 1 1 58C34708
P 10875 6950
F 0 "C31" H 10900 7025 50  0000 L CNN
F 1 "100nF" H 10900 6825 50  0000 L CNN
F 2 "Capacitors_SMD:C_0805_HandSoldering" H 9563 5200 50  0001 C CNN
F 3 "" H 9525 5350 50  0001 C CNN
	1    10875 6950
	1    0    0    -1  
$EndComp
$Comp
L +12VA #PWR37
U 1 1 58C3470E
P 11075 6800
F 0 "#PWR37" H 8225 5650 50  0001 C CNN
F 1 "+12VA" H 11090 6973 50  0000 C CNN
F 2 "" H 8225 5800 50  0001 C CNN
F 3 "" H 8225 5800 50  0001 C CNN
	1    11075 6800
	1    0    0    -1  
$EndComp
$Comp
L CP1 C35
U 1 1 58C34714
P 11250 6950
F 0 "C35" H 11275 7025 50  0000 L CNN
F 1 "10uF" H 11250 6825 50  0000 L CNN
F 2 "Capacitors_SMD:C_0805_HandSoldering" H 9900 5650 50  0001 C CNN
F 3 "" H 9900 5650 50  0001 C CNN
	1    11250 6950
	1    0    0    -1  
$EndComp
$Comp
L GNDA #PWR38
U 1 1 58C3471A
P 11075 7125
F 0 "#PWR38" H 11125 7175 50  0001 C CNN
F 1 "GNDA" H 11080 6952 50  0001 C CNN
F 2 "" H 2075 5450 50  0001 C CNN
F 3 "" H 2075 5450 50  0001 C CNN
	1    11075 7125
	1    0    0    -1  
$EndComp
$Comp
L MOS_N Q2
U 1 1 58C3DA80
P 11450 2725
F 0 "Q2" H 11625 2725 70  0000 L CNN
F 1 "IXTH110N10L2" H 11625 2625 39  0000 L CNN
F 2 "Electronic_Dc_Load:MosfetWirePad_SMD_5x10mm" H 1550 -150 60  0001 C CNN
F 3 "" H 1550 -150 60  0000 C CNN
	1    11450 2725
	1    0    0    -1  
$EndComp
Text Label 11050 3025 0    60   ~ 0
SOURCE2
Text Label 10700 2725 0    60   ~ 0
GATE2
$Comp
L R R24
U 1 1 58C3DA88
P 11100 2725
F 0 "R24" V 11200 2725 50  0000 C CNN
F 1 "100" V 11100 2725 50  0000 C CNN
F 2 "Resistors_SMD:R_1206_HandSoldering" V 3230 925 50  0001 C CNN
F 3 "" H 3300 925 50  0001 C CNN
	1    11100 2725
	0    -1   -1   0   
$EndComp
$Comp
L R R25
U 1 1 58C3DF82
P 11550 3350
F 0 "R25" V 11650 3350 50  0000 C CNN
F 1 "0R1" V 11550 3350 50  0000 C CNN
F 2 "Electronic_Dc_Load:Wire_resistor_Pad_SMD_5x10mm" V 3680 1550 50  0001 C CNN
F 3 "" H 3750 1550 50  0001 C CNN
F 4 "1% 25W" V 11550 3350 60  0001 C CNN "NOTE"
	1    11550 3350
	1    0    0    -1  
$EndComp
Text Notes 11225 3425 0    39   ~ 0
0.1 OHM\n1% 25W
$Comp
L GND #PWR42
U 1 1 58C3DF89
P 11550 3675
F 0 "#PWR42" H 11600 3725 50  0001 C CNN
F 1 "GND" H 11650 3575 50  0000 C CNN
F 2 "" H 1425 -50 50  0001 C CNN
F 3 "" H 1425 -50 50  0001 C CNN
	1    11550 3675
	1    0    0    -1  
$EndComp
$Comp
L GNDA #PWR21
U 1 1 58C42374
P 6250 2900
F 0 "#PWR21" H -350 975 50  0001 C CNN
F 1 "GNDA" H 6250 2750 50  0000 C CNN
F 2 "" H -350 1225 50  0001 C CNN
F 3 "" H -350 1225 50  0001 C CNN
	1    6250 2900
	1    0    0    -1  
$EndComp
$Comp
L +5VA #PWR6
U 1 1 58C300C8
P 2550 4475
F 0 "#PWR6" H -1275 2275 50  0001 C CNN
F 1 "+5VA" H 2565 4648 50  0000 C CNN
F 2 "" H -1275 2425 50  0001 C CNN
F 3 "" H -1275 2425 50  0001 C CNN
	1    2550 4475
	1    0    0    -1  
$EndComp
$Comp
L GNDA #PWR7
U 1 1 58C300C9
P 2550 6550
F 0 "#PWR7" H -1450 2625 50  0001 C CNN
F 1 "GNDA" H 2550 6400 50  0000 C CNN
F 2 "" H -1450 2875 50  0001 C CNN
F 3 "" H -1450 2875 50  0001 C CNN
	1    2550 6550
	1    0    0    -1  
$EndComp
$Comp
L R R3
U 1 1 58C300CA
P 1575 5175
F 0 "R3" V 1650 5200 50  0000 C CNN
F 1 "1M" V 1575 5175 50  0000 C CNN
F 2 "Resistors_SMD:R_0805_HandSoldering" V -1670 2500 50  0001 C CNN
F 3 "" H -1600 2500 50  0001 C CNN
F 4 "0.1%" V 1575 5175 60  0001 C CNN "NOTE"
	1    1575 5175
	0    1    1    0   
$EndComp
$Comp
L R R4
U 1 1 58C300CB
P 1575 5375
F 0 "R4" V 1650 5400 50  0000 C CNN
F 1 "1M" V 1575 5375 50  0000 C CNN
F 2 "Resistors_SMD:R_0805_HandSoldering" V -1670 2700 50  0001 C CNN
F 3 "" H -1600 2700 50  0001 C CNN
F 4 "0.1%" V 1575 5375 60  0001 C CNN "NOTE"
	1    1575 5375
	0    1    1    0   
$EndComp
$Comp
L HEADER_1 J2
U 1 1 58C300CC
P 1075 5175
F 0 "J2" H 1150 5275 60  0000 C CNN
F 1 "HEADER_1" H 1069 5034 60  0001 C CNN
F 2 "Wire_Pads:SolderWirePad_single_SMD_5x10mm" H -1250 2525 60  0001 C CNN
F 3 "" H -1250 2525 60  0000 C CNN
	1    1075 5175
	-1   0    0    1   
$EndComp
$Comp
L HEADER_1 J3
U 1 1 58C300CD
P 1075 5375
F 0 "J3" H 1125 5475 60  0000 C CNN
F 1 "HEADER_1" H 1069 5234 60  0001 C CNN
F 2 "Wire_Pads:SolderWirePad_single_SMD_5x10mm" H -1250 2725 60  0001 C CNN
F 3 "" H -1250 2725 60  0000 C CNN
	1    1075 5375
	-1   0    0    1   
$EndComp
Text Notes 650  5200 0    39   ~ 0
SENSE +
Text Notes 650  5425 0    39   ~ 0
SENSE -
$Comp
L C C7
U 1 1 58C300CE
P 2550 6325
F 0 "C7" H 2665 6371 50  0000 L CNN
F 1 "100nF" H 2665 6280 50  0000 L CNN
F 2 "Capacitors_SMD:C_0805_HandSoldering" H -1337 2950 50  0001 C CNN
F 3 "" H -1375 3100 50  0001 C CNN
	1    2550 6325
	1    0    0    -1  
$EndComp
$Comp
L C C5
U 1 1 58C300CF
P 2250 4625
F 0 "C5" H 2365 4671 50  0000 L CNN
F 1 "100nF" H 2300 4525 50  0000 L CNN
F 2 "Capacitors_SMD:C_0805_HandSoldering" H -1637 1250 50  0001 C CNN
F 3 "" H -1675 1400 50  0001 C CNN
	1    2250 4625
	1    0    0    -1  
$EndComp
$Comp
L GNDA #PWR5
U 1 1 58C300D0
P 2250 4825
F 0 "#PWR5" H -1750 900 50  0001 C CNN
F 1 "GNDA" H 2255 4652 50  0000 C CNN
F 2 "" H -1750 1150 50  0001 C CNN
F 3 "" H -1750 1150 50  0001 C CNN
	1    2250 4825
	1    0    0    -1  
$EndComp
$Comp
L +5VA #PWR8
U 1 1 58C300D1
P 2875 5850
F 0 "#PWR8" H -950 3650 50  0001 C CNN
F 1 "+5VA" H 2890 6023 50  0000 C CNN
F 2 "" H -950 3800 50  0001 C CNN
F 3 "" H -950 3800 50  0001 C CNN
	1    2875 5850
	1    0    0    -1  
$EndComp
$Comp
L RESISTOR_TRIM R7
U 1 1 58C300D2
P 2975 6000
F 0 "R7" V 3075 5950 50  0000 C CNN
F 1 "20K" V 2900 6050 50  0000 C CNN
F 2 "Potentiometers:Potentiometer_Bourns_3006P_Angular_ScrewFront" V -1670 2400 50  0001 C CNN
F 3 "" H -1600 2400 50  0001 C CNN
	1    2975 6000
	0    1    1    0   
$EndComp
$Comp
L R R5
U 1 1 58C300D3
P 1925 4875
F 0 "R5" V 2000 4900 50  0000 C CNN
F 1 "20K" V 1925 4875 50  0000 C CNN
F 2 "Resistors_SMD:R_1206_HandSoldering" V -1320 2200 50  0001 C CNN
F 3 "" H -1250 2200 50  0001 C CNN
F 4 "0.1%" V 1925 4875 60  0001 C CNN "NOTE"
	1    1925 4875
	-1   0    0    1   
$EndComp
$Comp
L GNDA #PWR3
U 1 1 58C300D5
P 1625 4725
F 0 "#PWR3" H -2375 800 50  0001 C CNN
F 1 "GNDA" H 1630 4552 50  0000 C CNN
F 2 "" H -2375 1050 50  0001 C CNN
F 3 "" H -2375 1050 50  0001 C CNN
	1    1625 4725
	1    0    0    -1  
$EndComp
$Comp
L ICL7660 U7
U 1 1 58C300D6
P 4900 5400
F 0 "U7" H 4900 5967 50  0000 C CNN
F 1 "ICL7660" H 4900 5876 50  0000 C CNN
F 2 "w_smd_dil:so-8" H -2000 2550 50  0001 C CNN
F 3 "" H -2000 2550 50  0001 C CNN
	1    4900 5400
	1    0    0    -1  
$EndComp
$Comp
L +5VA #PWR16
U 1 1 58C300D7
P 4350 4850
F 0 "#PWR16" H 525 2650 50  0001 C CNN
F 1 "+5VA" H 4365 5023 50  0000 C CNN
F 2 "" H 525 2800 50  0001 C CNN
F 3 "" H 525 2800 50  0001 C CNN
	1    4350 4850
	1    0    0    -1  
$EndComp
$Comp
L GNDA #PWR19
U 1 1 58C300D8
P 4900 5950
F 0 "#PWR19" H 900 2025 50  0001 C CNN
F 1 "GNDA" H 4900 5800 50  0000 C CNN
F 2 "" H 900 2275 50  0001 C CNN
F 3 "" H 900 2275 50  0001 C CNN
	1    4900 5950
	1    0    0    -1  
$EndComp
$Comp
L CP1 C17
U 1 1 58C300D9
P 5450 5450
F 0 "C17" H 5565 5496 50  0000 L CNN
F 1 "10uF" H 5565 5405 50  0000 L CNN
F 2 "Capacitors_SMD:C_0805_HandSoldering" H -1375 2450 50  0001 C CNN
F 3 "" H -1375 2450 50  0001 C CNN
	1    5450 5450
	1    0    0    -1  
$EndComp
NoConn ~ 4500 5400
NoConn ~ 4500 5600
$Comp
L CP1 C18
U 1 1 58C300DA
P 5900 5250
F 0 "C18" H 5785 5204 50  0000 R CNN
F 1 "10uF" H 5785 5295 50  0000 R CNN
F 2 "Capacitors_SMD:C_0805_HandSoldering" H -925 2250 50  0001 C CNN
F 3 "" H -925 2250 50  0001 C CNN
	1    5900 5250
	-1   0    0    1   
$EndComp
NoConn ~ 4500 5200
$Comp
L GNDA #PWR20
U 1 1 58C300DB
P 5900 5500
F 0 "#PWR20" H 1900 1575 50  0001 C CNN
F 1 "GNDA" H 5905 5327 50  0000 C CNN
F 2 "" H 1900 1825 50  0001 C CNN
F 3 "" H 1900 1825 50  0001 C CNN
	1    5900 5500
	1    0    0    -1  
$EndComp
Text Notes 2750 4175 0    59   ~ 0
LOAD VOLTAGE SENSE CIRCUIT
Text Notes 625  4550 0    59   ~ 0
R3, R4, R5 & R6\nPRECISION 0.1%
$Comp
L OPA277 U4
U 1 1 58C300C7
P 2650 5275
F 0 "U4" H 2750 5425 50  0000 L CNN
F 1 "OPA277" H 2775 5175 50  0000 L CNN
F 2 "w_smd_dil:so-8" H -750 2475 50  0001 C CNN
F 3 "" H -750 2575 50  0001 C CNN
	1    2650 5275
	1    0    0    -1  
$EndComp
Text Label 4200 5275 2    60   ~ 0
VOLT.SENSE.OUT
Text Label 10125 1525 2    39   ~ 0
VOLT.SENSE.OUT
$Comp
L LM35-TO220 U15
U 1 1 58C58D7E
P 14825 3275
F 0 "U15" H 15100 3600 50  0000 R CNN
F 1 "LM35" H 15150 3525 50  0000 R CNN
F 2 "w_to:to220_std" H 9875 -325 50  0001 L CNN
F 3 "" H 9825 -75 50  0001 C CNN
F 4 "TO 220" H 14825 3275 60  0001 C CNN "NOTE"
	1    14825 3275
	1    0    0    -1  
$EndComp
$Comp
L +5VA #PWR53
U 1 1 58C58D84
P 14825 2925
F 0 "#PWR53" H 10125 1625 50  0001 C CNN
F 1 "+5VA" H 14840 3098 50  0000 C CNN
F 2 "" H 10125 1775 50  0001 C CNN
F 3 "" H 10125 1775 50  0001 C CNN
	1    14825 2925
	1    0    0    -1  
$EndComp
Text Label 15550 3275 2    59   ~ 0
TEMP2.
Text Notes 14600 2675 0    60   ~ 0
TEMP. SENSOR 2
$Comp
L GNDA #PWR54
U 1 1 58C58D8C
P 14825 3625
F 0 "#PWR54" H 9800 -450 50  0001 C CNN
F 1 "GNDA" H 14825 3475 50  0000 C CNN
F 2 "" H 9800 -200 50  0001 C CNN
F 3 "" H 9800 -200 50  0001 C CNN
	1    14825 3625
	1    0    0    -1  
$EndComp
Text Label 14225 8200 2    39   ~ 0
TEMP2.
$Comp
L R R29
U 1 1 58C5E97D
P 13700 1875
F 0 "R29" V 13775 1875 50  0000 L CNN
F 1 "100K" V 13700 1775 50  0000 L CNN
F 2 "Resistors_SMD:R_1206_HandSoldering" V 11830 -1875 50  0001 C CNN
F 3 "" H 11900 -1875 50  0001 C CNN
	1    13700 1875
	0    1    1    0   
$EndComp
$Comp
L R R28
U 1 1 58C5E983
P 13700 1700
F 0 "R28" V 13775 1700 50  0000 L CNN
F 1 "100" V 13700 1650 50  0000 L CNN
F 2 "Resistors_SMD:R_1206_HandSoldering" V 11830 -2050 50  0001 C CNN
F 3 "" H 11900 -2050 50  0001 C CNN
	1    13700 1700
	0    1    1    0   
$EndComp
$Comp
L +12V #PWR51
U 1 1 58C5E989
P 14200 975
F 0 "#PWR51" H 11350 -175 50  0001 C CNN
F 1 "+12V" H 14215 1148 50  0000 C CNN
F 2 "" H 11350 -25 50  0001 C CNN
F 3 "" H 11350 -25 50  0001 C CNN
	1    14200 975 
	1    0    0    -1  
$EndComp
$Comp
L MOS_N Q3
U 1 1 58C5E98F
P 14100 1700
F 0 "Q3" H 14225 1700 70  0000 L CNN
F 1 "IRLB8721PBF" H 14225 1600 39  0000 L CNN
F 2 "Electronic_Dc_Load:TO220_NMOS" H 4200 -1175 60  0001 C CNN
F 3 "" H 4200 -1175 60  0000 C CNN
	1    14100 1700
	1    0    0    -1  
$EndComp
$Comp
L 1N4007 D7
U 1 1 58C5E995
P 15425 1250
F 0 "D7" H 15400 1150 50  0000 L CNN
F 1 "1N4007" H 15300 1350 50  0000 L CNN
F 2 "Electronic_Dc_Load:diode_do41_pin1_k" H 11825 -4100 50  0001 C CNN
F 3 "" H 11825 -3925 50  0001 C CNN
	1    15425 1250
	0    1    1    0   
$EndComp
Text Label 13275 1700 0    39   ~ 0
FAN
$Comp
L Fan M1
U 1 1 58C5E99C
P 14200 1300
F 0 "M1" H 14300 1475 50  0000 L CNN
F 1 "Fan" H 13925 1350 50  0000 L CNN
F 2 "w_conn_kk100:kk100_22-23-2021" H 11100 -3340 50  0001 C CNN
F 3 "" H 11100 -3340 50  0001 C CNN
	1    14200 1300
	1    0    0    -1  
$EndComp
$Comp
L GNDD #PWR52
U 1 1 58C5E9A2
P 14200 1925
F 0 "#PWR52" H 10425 -3725 50  0001 C CNN
F 1 "GNDD" H 14325 1850 50  0000 C CNN
F 2 "" H 10425 -3475 50  0001 C CNN
F 3 "" H 10425 -3475 50  0001 C CNN
	1    14200 1925
	1    0    0    -1  
$EndComp
$Comp
L Fan M2
U 1 1 58C65478
P 15100 1300
F 0 "M2" H 15200 1475 50  0000 L CNN
F 1 "Fan" H 14825 1350 50  0000 L CNN
F 2 "w_conn_kk100:kk100_22-23-2021" H 12000 -3340 50  0001 C CNN
F 3 "" H 12000 -3340 50  0001 C CNN
	1    15100 1300
	1    0    0    -1  
$EndComp
$Comp
L 1N4007 D6
U 1 1 58C66FC5
P 14625 1250
F 0 "D6" H 14600 1150 50  0000 L CNN
F 1 "1N4007" H 14500 1350 50  0000 L CNN
F 2 "Electronic_Dc_Load:diode_do41_pin1_k" H 11025 -4100 50  0001 C CNN
F 3 "" H 11025 -3925 50  0001 C CNN
	1    14625 1250
	0    1    1    0   
$EndComp
Text Notes 14050 675  0    60   ~ 0
FAN CONTROL
$Comp
L R R6
U 1 1 58C300D4
P 1925 5650
F 0 "R6" V 2000 5675 50  0000 C CNN
F 1 "20K" V 1925 5650 50  0000 C CNN
F 2 "Resistors_SMD:R_1206_HandSoldering" V -1320 2975 50  0001 C CNN
F 3 "" H -1250 2975 50  0001 C CNN
F 4 "0.1%" V 1925 5650 60  0001 C CNN "NOTE"
	1    1925 5650
	-1   0    0    1   
$EndComp
$Comp
L 1N4007 D2
U 1 1 58C9D163
P 10675 3200
F 0 "D2" H 10650 3100 50  0000 L CNN
F 1 "FFD10UP20S" H 10275 3300 39  0000 L CNN
F 2 "Electronic_Dc_Load:TO-252" H 7075 -2150 50  0001 C CNN
F 3 "" H 7075 -1975 50  0001 C CNN
	1    10675 3200
	0    -1   -1   0   
$EndComp
$Comp
L 1N4007 D4
U 1 1 58C9D88C
P 11850 3200
F 0 "D4" H 11825 3100 50  0000 L CNN
F 1 "FFD10UP20S" H 11450 3300 39  0000 L CNN
F 2 "Electronic_Dc_Load:TO-252" H 8250 -2150 50  0001 C CNN
F 3 "" H 8250 -1975 50  0001 C CNN
	1    11850 3200
	0    -1   -1   0   
$EndComp
$Comp
L 1N4007 D3
U 1 1 58CA013D
P 10675 3600
F 0 "D3" H 10650 3500 50  0000 L CNN
F 1 "FFD10UP20S" H 10500 3700 39  0001 L CNN
F 2 "Electronic_Dc_Load:TO-252" H 7075 -1750 50  0001 C CNN
F 3 "" H 7075 -1575 50  0001 C CNN
	1    10675 3600
	0    -1   -1   0   
$EndComp
$Comp
L 1N4007 D5
U 1 1 58CA1AC7
P 11850 3600
F 0 "D5" H 11825 3500 50  0000 L CNN
F 1 "FFD10UP20S" H 11675 3700 39  0001 L CNN
F 2 "Electronic_Dc_Load:TO-252" H 8250 -1750 50  0001 C CNN
F 3 "" H 8250 -1575 50  0001 C CNN
	1    11850 3600
	0    -1   -1   0   
$EndComp
$Comp
L FUSE_JOIN_POINT F2
U 1 1 58CA36B1
P 11550 2250
F 0 "F2" H 11525 2350 40  0000 L CNN
F 1 "10A QUICK FUSE" V 11600 1700 40  0001 L CNN
F 2 "Wire_Pads:SolderWirePad_single_SMD_5x10mm" H 1625 0   60  0001 C CNN
F 3 "" H 1625 0   60  0000 C CNN
	1    11550 2250
	0    -1   -1   0   
$EndComp
$Comp
L CP1 C25
U 1 1 58CA6562
P 8050 6675
F 0 "C25" H 8165 6721 50  0000 L CNN
F 1 "1uF" H 8125 6575 50  0000 L CNN
F 2 "w_capacitors:CP_5x11mm" H 6700 5375 50  0001 C CNN
F 3 "" H 6700 5375 50  0001 C CNN
	1    8050 6675
	1    0    0    -1  
$EndComp
$Comp
L CP1 C27
U 1 1 58CA68B6
P 8750 6475
F 0 "C27" H 8865 6521 50  0000 L CNN
F 1 "1uF" H 8825 6375 50  0000 L CNN
F 2 "w_capacitors:CP_5x11mm" H 7400 5175 50  0001 C CNN
F 3 "" H 7400 5175 50  0001 C CNN
	1    8750 6475
	1    0    0    -1  
$EndComp
$Comp
L C C23
U 1 1 58CA9261
P 7475 5700
F 0 "C23" H 7500 5775 50  0000 L CNN
F 1 "100nF" H 7500 5575 50  0000 L CNN
F 2 "Capacitors_SMD:C_0805_HandSoldering" H 6163 3950 50  0001 C CNN
F 3 "" H 6125 4100 50  0001 C CNN
	1    7475 5700
	1    0    0    -1  
$EndComp
$Comp
L GNDA #PWR26
U 1 1 58CA9880
P 7475 5875
F 0 "#PWR26" H 7525 5925 50  0001 C CNN
F 1 "GNDA" H 7480 5702 50  0001 C CNN
F 2 "" H -800 650 50  0001 C CNN
F 3 "" H -800 650 50  0001 C CNN
	1    7475 5875
	1    0    0    -1  
$EndComp
$Comp
L CP1 C1
U 1 1 58CBC71D
P 875 3150
F 0 "C1" H 990 3196 50  0000 L CNN
F 1 "1uF" H 925 3000 50  0000 L CNN
F 2 "w_capacitors:CP_5x11mm" H -475 1850 50  0001 C CNN
F 3 "" H -475 1850 50  0001 C CNN
	1    875  3150
	1    0    0    -1  
$EndComp
$Comp
L C C3
U 1 1 58CBC723
P 1275 3150
F 0 "C3" H 1390 3196 50  0000 L CNN
F 1 "100nF" H 1300 3025 50  0000 L CNN
F 2 "w_capacitors:cnp_6mm_disc" H -37 1400 50  0001 C CNN
F 3 "" H -75 1550 50  0001 C CNN
	1    1275 3150
	1    0    0    -1  
$EndComp
$Comp
L C C8
U 1 1 58CBC729
P 2650 3150
F 0 "C8" H 2765 3196 50  0000 L CNN
F 1 "100nF" H 2750 3000 50  0000 L CNN
F 2 "w_capacitors:cnp_6mm_disc" H 1338 1400 50  0001 C CNN
F 3 "" H 1300 1550 50  0001 C CNN
	1    2650 3150
	1    0    0    -1  
$EndComp
$Comp
L CP1 C10
U 1 1 58CBC72F
P 3050 3150
F 0 "C10" H 3165 3196 50  0000 L CNN
F 1 "10uF" H 3150 3000 50  0000 L CNN
F 2 "w_capacitors:CP_5x11mm" H 1700 1850 50  0001 C CNN
F 3 "" H 1700 1850 50  0001 C CNN
	1    3050 3150
	1    0    0    -1  
$EndComp
$Comp
L +12VA #PWR12
U 1 1 58CBC735
P 3050 2750
F 0 "#PWR12" H 200 1600 50  0001 C CNN
F 1 "+12VA" H 3065 2923 50  0000 C CNN
F 2 "" H 200 1750 50  0001 C CNN
F 3 "" H 200 1750 50  0001 C CNN
	1    3050 2750
	1    0    0    -1  
$EndComp
$Comp
L 78xx_Reg U5
U 1 1 58CBC73B
P 3725 3000
F 0 "U5" H 3725 3247 60  0000 C CNN
F 1 "L7805ABV" H 3725 3141 60  0000 C CNN
F 2 "w_to:to220_std" H 1575 1050 60  0001 C CNN
F 3 "" H 1575 1050 60  0000 C CNN
	1    3725 3000
	1    0    0    -1  
$EndComp
$Comp
L C C13
U 1 1 58CBC741
P 4275 3150
F 0 "C13" H 4390 3196 50  0000 L CNN
F 1 "100nF" H 4375 3000 50  0000 L CNN
F 2 "w_capacitors:cnp_6mm_disc" H 2963 1400 50  0001 C CNN
F 3 "" H 2925 1550 50  0001 C CNN
	1    4275 3150
	1    0    0    -1  
$EndComp
$Comp
L CP1 C15
U 1 1 58CBC747
P 4725 3150
F 0 "C15" H 4840 3196 50  0000 L CNN
F 1 "10uF" H 4825 3000 50  0000 L CNN
F 2 "w_capacitors:CP_5x11mm" H 3375 1850 50  0001 C CNN
F 3 "" H 3375 1850 50  0001 C CNN
	1    4725 3150
	1    0    0    -1  
$EndComp
$Comp
L +5VA #PWR17
U 1 1 58CBC74D
P 4725 2750
F 0 "#PWR17" H 25  1450 50  0001 C CNN
F 1 "+5VA" H 4740 2923 50  0000 C CNN
F 2 "" H 25  1600 50  0001 C CNN
F 3 "" H 25  1600 50  0001 C CNN
	1    4725 2750
	1    0    0    -1  
$EndComp
$Comp
L 78xx_Reg U3
U 1 1 58CBC753
P 2100 3000
F 0 "U3" H 2100 3247 60  0000 C CNN
F 1 "LM7812ACT" H 2100 3141 60  0000 C CNN
F 2 "w_to:to220_std" H 150 1475 60  0001 C CNN
F 3 "" H 150 1475 60  0000 C CNN
	1    2100 3000
	1    0    0    -1  
$EndComp
$Comp
L GNDA #PWR13
U 1 1 58CC27D1
P 3050 3625
F 0 "#PWR13" H 100 1425 50  0001 C CNN
F 1 "GNDA" H 3050 3475 50  0000 C CNN
F 2 "" H 100 1575 50  0001 C CNN
F 3 "" H 100 1575 50  0001 C CNN
	1    3050 3625
	1    0    0    -1  
$EndComp
Text Notes 2600 925  0    60   ~ 0
DIGITAL POWER
Text Notes 2600 2450 0    60   ~ 0
ANALOG POWER
$Comp
L MCP609 U1
U 1 1 58CD94AD
P 1475 9975
F 0 "U1" H 1550 10100 50  0000 L CNN
F 1 "MCP609" H 1550 9825 50  0000 L CNN
F 2 "w_smd_dil:so-14" H -6925 875 50  0001 C CNN
F 3 "" H -6825 975 50  0001 C CNN
	1    1475 9975
	1    0    0    -1  
$EndComp
$Comp
L +5VA #PWR1
U 1 1 58CDAB02
P 925 9350
F 0 "#PWR1" H -3775 8050 50  0001 C CNN
F 1 "+5VA" H 940 9523 50  0000 C CNN
F 2 "" H -3775 8200 50  0001 C CNN
F 3 "" H -3775 8200 50  0001 C CNN
	1    925  9350
	1    0    0    -1  
$EndComp
$Comp
L GNDA #PWR2
U 1 1 58CDB0CA
P 925 10375
F 0 "#PWR2" H 975 10425 50  0001 C CNN
F 1 "GNDA" H 930 10202 50  0000 C CNN
F 2 "" H -4550 5175 50  0001 C CNN
F 3 "" H -4550 5175 50  0001 C CNN
	1    925  10375
	1    0    0    -1  
$EndComp
$Comp
L R R1
U 1 1 58CDB30A
P 925 9600
F 0 "R1" V 1025 9600 50  0000 C CNN
F 1 "10K" V 925 9600 50  0000 C CNN
F 2 "Resistors_SMD:R_1206_HandSoldering" V -6945 7800 50  0001 C CNN
F 3 "" H -6875 7800 50  0001 C CNN
	1    925  9600
	1    0    0    -1  
$EndComp
$Comp
L R R2
U 1 1 58CDB832
P 925 10100
F 0 "R2" V 1025 10100 50  0000 C CNN
F 1 "10K" V 925 10100 50  0000 C CNN
F 2 "Resistors_SMD:R_1206_HandSoldering" V -6945 8300 50  0001 C CNN
F 3 "" H -6875 8300 50  0001 C CNN
	1    925  10100
	1    0    0    -1  
$EndComp
Text Notes 950  9075 0    60   ~ 0
UNUSED OP AMP
$Comp
L LM35-TO220 U13
U 1 1 58CF48EA
P 13375 3275
F 0 "U13" H 13625 3600 50  0000 R CNN
F 1 "LM35" H 13675 3525 50  0000 R CNN
F 2 "w_to:to220_std" H 50  -225 50  0001 L CNN
F 3 "" H 0   25  50  0001 C CNN
F 4 "TO 220" H 13375 3275 60  0001 C CNN "NOTE"
	1    13375 3275
	1    0    0    -1  
$EndComp
$Comp
L GND #PWR4
U 1 1 58D9F792
P 1875 2100
F 0 "#PWR4" H -100 -450 50  0001 C CNN
F 1 "GND" H 1880 1927 50  0000 C CNN
F 2 "" H -100 -200 50  0001 C CNN
F 3 "" H -100 -200 50  0001 C CNN
	1    1875 2100
	1    0    0    -1  
$EndComp
$Comp
L C C42
U 1 1 58DCCFF5
P 12925 3400
F 0 "C42" H 12875 3475 50  0000 L CNN
F 1 "100nF" H 12950 3275 50  0000 L CNN
F 2 "Capacitors_SMD:C_0805_HandSoldering" H 11613 1650 50  0001 C CNN
F 3 "" H 11575 1800 50  0001 C CNN
	1    12925 3400
	1    0    0    -1  
$EndComp
$Comp
L C C43
U 1 1 58DCD8AB
P 14400 3400
F 0 "C43" H 14350 3475 50  0000 L CNN
F 1 "100nF" H 14425 3275 50  0000 L CNN
F 2 "Capacitors_SMD:C_0805_HandSoldering" H 13088 1650 50  0001 C CNN
F 3 "" H 13050 1800 50  0001 C CNN
	1    14400 3400
	1    0    0    -1  
$EndComp
$Comp
L ZENER D8
U 1 1 58E55BA9
P 14250 8475
F 0 "D8" V 14313 8422 40  0000 R CNN
F 1 "5.1V ZENER" V 14237 8422 31  0000 R CNN
F 2 "w_smd_diode:sod123" H 4850 5600 60  0001 C CNN
F 3 "" H 4850 5600 60  0000 C CNN
	1    14250 8475
	0    -1   -1   0   
$EndComp
$Comp
L TVS_BIPOL D9
U 1 1 58E5702B
P 14625 8475
F 0 "D9" V 14594 8528 40  0000 L CNN
F 1 "SMAJ6.0CA-TR" V 14675 8525 31  0000 L CNN
F 2 "w_smd_diode:do214ac" H -500 0   60  0001 C CNN
F 3 "" H -500 0   60  0000 C CNN
	1    14625 8475
	0    1    1    0   
$EndComp
$Comp
L R R30
U 1 1 58E577DA
P 14900 8375
F 0 "R30" V 14975 8375 39  0000 C CNN
F 1 "1K" V 14900 8375 50  0000 C CNN
F 2 "Resistors_SMD:R_1206_HandSoldering" V 7030 6575 50  0001 C CNN
F 3 "" H 7100 6575 50  0001 C CNN
	1    14900 8375
	0    1    1    0   
$EndComp
$Comp
L HEADER_2 J9
U 1 1 58E5B12C
P 15225 8475
F 0 "J9" H 15325 8450 60  0000 L CNN
F 1 "Trigger Input" H 15225 8350 31  0000 L CNN
F 2 "w_conn_kk100:kk100_22-23-2021" H 425 125 60  0001 C CNN
F 3 "" H 425 125 60  0000 C CNN
	1    15225 8475
	1    0    0    -1  
$EndComp
$Comp
L GNDD #PWR57
U 1 1 58E5D1CA
P 15125 8650
F 0 "#PWR57" H 11375 4350 50  0001 C CNN
F 1 "GNDD" H 15275 8575 50  0000 C CNN
F 2 "" H 11375 4600 50  0001 C CNN
F 3 "" H 11375 4600 50  0001 C CNN
	1    15125 8650
	1    0    0    -1  
$EndComp
$Comp
L LM431 U16
U 1 1 59F20724
P 8750 7975
F 0 "U16" V 8697 8063 60  0000 L CNN
F 1 "LM431" V 8803 8063 60  0000 L CNN
F 2 "" H 225 375 60  0000 C CNN
F 3 "" H 225 375 60  0000 C CNN
	1    8750 7975
	0    1    1    0   
$EndComp
$Comp
L C C44
U 1 1 59F208D4
P 8200 7975
F 0 "C44" H 7950 8025 50  0000 L CNN
F 1 "100nF" H 7925 7850 50  0000 L CNN
F 2 "Capacitors_SMD:C_0805_HandSoldering" H 6888 6225 50  0001 C CNN
F 3 "" H 6850 6375 50  0001 C CNN
	1    8200 7975
	1    0    0    -1  
$EndComp
$Comp
L R R31
U 1 1 59F20B39
P 8750 7325
F 0 "R31" V 8850 7325 50  0000 C CNN
F 1 "2K2" V 8750 7325 50  0000 C CNN
F 2 "Resistors_SMD:R_0805_HandSoldering" V 880 5525 50  0001 C CNN
F 3 "" H 950 5525 50  0001 C CNN
F 4 "0.1%" V 8750 7325 60  0001 C CNN "NOTE"
	1    8750 7325
	1    0    0    -1  
$EndComp
$Comp
L GNDA #PWR30
U 1 1 59F21880
P 8750 8450
F 0 "#PWR30" H 8800 8500 50  0001 C CNN
F 1 "GNDA" H 8755 8277 50  0000 C CNN
F 2 "" H -975 2875 50  0001 C CNN
F 3 "" H -975 2875 50  0001 C CNN
	1    8750 8450
	1    0    0    -1  
$EndComp
Text Label 6100 5100 0    60   ~ 0
-5V
$Comp
L R R32
U 1 1 59F26CEF
P 9975 7375
F 0 "R32" V 10075 7375 50  0000 C CNN
F 1 "4M7" V 9975 7375 50  0000 C CNN
F 2 "Resistors_SMD:R_0805_HandSoldering" V 2105 5575 50  0001 C CNN
F 3 "" H 2175 5575 50  0001 C CNN
F 4 "0.1%" V 9975 7375 60  0001 C CNN "NOTE"
	1    9975 7375
	1    0    0    -1  
$EndComp
$Comp
L POT RV1
U 1 1 59F27184
P 9700 7525
F 0 "RV1" H 9630 7571 50  0000 R CNN
F 1 "10K" H 9630 7480 50  0000 R CNN
F 2 "" H 300 -100 50  0001 C CNN
F 3 "" H 300 -100 50  0001 C CNN
	1    9700 7525
	1    0    0    -1  
$EndComp
$Comp
L R R33
U 1 1 59F27BC0
P 10075 8275
F 0 "R33" V 10175 8275 50  0000 C CNN
F 1 "4M7" V 10075 8275 50  0000 C CNN
F 2 "Resistors_SMD:R_0805_HandSoldering" V 2205 6475 50  0001 C CNN
F 3 "" H 2275 6475 50  0001 C CNN
F 4 "0.1%" V 10075 8275 60  0001 C CNN "NOTE"
	1    10075 8275
	0    1    1    0   
$EndComp
$Comp
L POT RV2
U 1 1 59F27E55
P 9700 8275
F 0 "RV2" H 9630 8321 50  0000 R CNN
F 1 "10K" H 9630 8230 50  0000 R CNN
F 2 "" H 300 650 50  0001 C CNN
F 3 "" H 300 650 50  0001 C CNN
	1    9700 8275
	1    0    0    -1  
$EndComp
Text Label 8550 7175 0    60   ~ 0
-5V
Text Notes 8800 7550 0    60   ~ 0
-2.5V
Text Notes 8875 6325 0    60   ~ 0
4.096V
Text Notes 8850 7050 0    60   ~ 0
Out of PCB
$Comp
L RELAY_RT1_SPNO RLY1
U 1 1 59F2EB38
P 10875 1250
F 0 "RLY1" V 10875 1425 39  0000 L CNN
F 1 "Relpol RM51 5V 10A" V 10928 1488 60  0001 L CNN
F 2 "" H 225 150 60  0000 C CNN
F 3 "" H 225 150 60  0000 C CNN
	1    10875 1250
	0    -1   -1   0   
$EndComp
$Comp
L RELAY_RT1_SPNO RLY2
U 1 1 59F2F033
P 11450 1250
F 0 "RLY2" V 11450 1575 39  0000 R CNN
F 1 "Relpol RM51 5V 10A" V 11397 1059 60  0001 R CNN
F 2 "" H 800 150 60  0000 C CNN
F 3 "" H 800 150 60  0000 C CNN
	1    11450 1250
	0    -1   -1   0   
$EndComp
$Comp
L R R34
U 1 1 59F30131
P 11025 1800
F 0 "R34" V 11100 1800 50  0000 L CNN
F 1 "100" V 11025 1750 50  0000 L CNN
F 2 "Resistors_SMD:R_1206_HandSoldering" V 9155 -1950 50  0001 C CNN
F 3 "" H 9225 -1950 50  0001 C CNN
	1    11025 1800
	0    1    1    0   
$EndComp
$Comp
L R R35
U 1 1 59F3036B
P 11025 1975
F 0 "R35" V 11100 1975 50  0000 L CNN
F 1 "100K" V 11025 1875 50  0000 L CNN
F 2 "Resistors_SMD:R_1206_HandSoldering" V 9155 -1775 50  0001 C CNN
F 3 "" H 9225 -1775 50  0001 C CNN
	1    11025 1975
	0    1    1    0   
$EndComp
$Comp
L +5V #PWR41
U 1 1 59F3261C
P 11150 925
F 0 "#PWR41" H 9350 -2375 50  0001 C CNN
F 1 "+5V" H 11165 1098 50  0000 C CNN
F 2 "" H 9350 -2225 50  0001 C CNN
F 3 "" H 9350 -2225 50  0001 C CNN
	1    11150 925 
	1    0    0    -1  
$EndComp
Text Label 10600 1800 0    39   ~ 0
RLY_ON
$Comp
L MOS_N Q4
U 1 1 59F2DB83
P 11300 1800
F 0 "Q4" H 11125 2000 39  0000 L CNN
F 1 "2N7000" H 11125 1950 39  0000 L CNN
F 2 "" H 225 850 60  0000 C CNN
F 3 "" H 225 850 60  0000 C CNN
	1    11300 1800
	1    0    0    -1  
$EndComp
Text Notes 10425 825  0    60   ~ 0
Out of PCB
Text Label 14225 7700 2    39   ~ 0
TEMP1.
Text Label 14225 8300 2    39   ~ 0
RLY_ON
Wire Wire Line
	700  1450 1600 1450
Wire Wire Line
	700  1450 700  2150
Connection ~ 900  1450
Connection ~ 1300 1450
Wire Wire Line
	900  1750 900  1900
Wire Wire Line
	900  1900 4750 1900
Wire Wire Line
	2900 1750 2900 2100
Wire Wire Line
	1950 1800 1950 1900
Connection ~ 1950 1900
Wire Wire Line
	1300 1750 1300 1900
Connection ~ 1300 1900
Wire Wire Line
	2500 1750 2500 1900
Connection ~ 2500 1900
Wire Wire Line
	2300 1450 3400 1450
Connection ~ 2500 1450
Wire Wire Line
	1450 1900 1450 2150
Connection ~ 1450 1900
Wire Wire Line
	2900 1450 2900 1200
Connection ~ 2900 1450
Connection ~ 2900 1900
Wire Notes Line
	550  700  5100 700 
Wire Notes Line
	550  3875 5100 3875
Wire Notes Line
	550  700  550  3875
Wire Wire Line
	3750 1900 3750 1800
Wire Wire Line
	4300 1900 4300 1750
Connection ~ 3750 1900
Wire Wire Line
	4750 1900 4750 1750
Connection ~ 4300 1900
Wire Wire Line
	4100 1450 4750 1450
Connection ~ 4300 1450
Wire Wire Line
	4750 1450 4750 1200
Wire Notes Line
	5100 3875 5100 700 
Wire Wire Line
	15225 7200 15225 7100
Wire Wire Line
	14825 7200 15225 7200
Wire Wire Line
	14825 7200 14825 7100
Wire Wire Line
	15025 7200 15025 7850
Connection ~ 15025 7200
Wire Wire Line
	14150 7300 13975 7300
Wire Wire Line
	12950 7500 13275 7500
Connection ~ 15025 6800
Wire Wire Line
	13275 7800 12700 7800
Wire Wire Line
	12700 7800 12700 7900
Wire Wire Line
	12700 7900 12525 7900
Wire Wire Line
	12625 7300 12625 7900
Connection ~ 12625 7900
Wire Wire Line
	12825 7300 12825 7700
Wire Wire Line
	12625 7000 12625 6950
Wire Wire Line
	12625 6950 12825 6950
Wire Wire Line
	12825 6950 12825 7000
Wire Wire Line
	12725 6900 12725 6950
Connection ~ 12725 6950
Wire Wire Line
	14075 7800 13975 7800
Wire Wire Line
	14075 7900 13975 7900
Wire Wire Line
	13150 8600 13275 8600
Wire Wire Line
	13975 8300 14225 8300
Wire Notes Line
	11925 6550 11925 8775
Wire Notes Line
	11925 8775 15625 8775
Wire Notes Line
	15625 8775 15625 6550
Wire Notes Line
	15625 6550 11925 6550
Wire Wire Line
	2850 7900 3900 7900
Wire Wire Line
	3900 8300 3900 8200
Wire Wire Line
	3500 8300 3900 8300
Wire Wire Line
	3500 8300 3500 8200
Connection ~ 3700 8300
Connection ~ 3500 7900
Connection ~ 3700 7900
Wire Wire Line
	3700 8450 3700 8300
Wire Wire Line
	3050 7500 3050 7450
Wire Wire Line
	3250 7450 3250 7500
Wire Wire Line
	3700 7450 3700 7900
Wire Wire Line
	3050 7450 3700 7450
Connection ~ 3700 7450
Connection ~ 3250 7450
Wire Wire Line
	2850 8000 3300 8000
Wire Wire Line
	2850 8100 3300 8100
Wire Wire Line
	3250 7800 3250 7850
Wire Wire Line
	3250 7850 3150 7850
Wire Wire Line
	3150 7850 3150 8000
Connection ~ 3150 8000
Wire Wire Line
	3050 7800 3050 8100
Connection ~ 3050 8100
Wire Notes Line
	550  7150 4250 7150
Wire Notes Line
	4250 7150 4250 8800
Wire Notes Line
	4250 8800 550  8800
Wire Notes Line
	550  8800 550  7150
Wire Wire Line
	14850 5125 15200 5125
Wire Wire Line
	15000 5125 15000 5075
Wire Wire Line
	15500 5375 15500 4525
Wire Wire Line
	14450 5375 15500 5375
Connection ~ 15500 5125
Wire Wire Line
	15500 4975 15500 4965
Connection ~ 15500 4965
Connection ~ 15150 5375
Wire Wire Line
	14150 4525 15200 4525
Wire Wire Line
	14450 4525 14450 4575
Connection ~ 15500 4825
Wire Wire Line
	14050 4775 13800 4775
Wire Wire Line
	14050 4875 13800 4875
Connection ~ 14450 4525
Wire Wire Line
	14850 4825 15200 4825
Wire Wire Line
	15000 4825 15000 4875
Wire Wire Line
	15125 4975 15500 4975
Wire Notes Line
	13700 4275 15600 4275
Wire Notes Line
	15600 4275 15600 5675
Wire Notes Line
	15600 5675 13700 5675
Wire Notes Line
	13700 5675 13700 4275
Wire Wire Line
	6750 6150 6750 6325
Wire Wire Line
	6750 6325 7050 6325
Connection ~ 6750 6325
Wire Wire Line
	7550 6775 7550 6900
Wire Wire Line
	6750 6625 6750 6825
Wire Wire Line
	6750 6825 8750 6825
Connection ~ 7550 6825
Wire Wire Line
	8325 6825 8325 6625
Wire Wire Line
	7050 1475 7050 1375
Wire Wire Line
	6650 1475 7050 1475
Wire Wire Line
	6650 1475 6650 1375
Connection ~ 6850 1475
Connection ~ 6650 1075
Connection ~ 6850 1075
Wire Wire Line
	6850 1625 6850 1475
Wire Wire Line
	6850 1075 6850 975 
Wire Wire Line
	6250 1550 6250 1075
Wire Wire Line
	6250 1075 7050 1075
Wire Wire Line
	5700 2200 5500 2200
Wire Wire Line
	5700 2050 5500 2050
Wire Wire Line
	8650 2300 8650 2450
Wire Wire Line
	6800 2375 9500 2375
Connection ~ 8650 2375
Wire Wire Line
	7375 2250 7375 2375
Connection ~ 7375 2375
Wire Wire Line
	6800 1950 7475 1950
Wire Wire Line
	8100 2000 8250 2000
Wire Wire Line
	7800 2000 7475 2000
Wire Wire Line
	7475 2000 7475 1950
Connection ~ 7375 1950
Wire Wire Line
	6800 2050 7200 2050
Wire Wire Line
	7200 2050 7200 2375
Connection ~ 7200 2375
Wire Wire Line
	9450 1450 9450 1350
Wire Wire Line
	9050 1450 9450 1450
Wire Wire Line
	9050 1450 9050 1350
Connection ~ 9250 1450
Connection ~ 9050 1050
Connection ~ 9250 1050
Wire Wire Line
	9250 1600 9250 1450
Wire Wire Line
	9250 1050 9250 950 
Wire Wire Line
	8650 1050 9450 1050
Wire Wire Line
	8650 1700 8650 1050
Wire Wire Line
	8850 2100 8850 2300
Wire Wire Line
	8850 2300 8125 2300
Wire Wire Line
	8125 2300 8125 2000
Connection ~ 8125 2000
Wire Wire Line
	6800 2200 7025 2200
Wire Wire Line
	7025 2200 7025 3225
Wire Wire Line
	7625 3225 7625 3400
Connection ~ 7625 3225
Wire Wire Line
	7025 3225 7625 3225
Wire Wire Line
	7925 3225 8225 3225
Wire Wire Line
	8825 3325 8825 3600
Wire Wire Line
	8825 3600 8000 3600
Wire Wire Line
	8000 3600 8000 3225
Connection ~ 8000 3225
Wire Wire Line
	8850 1900 9650 1900
Wire Wire Line
	9300 2000 9300 1900
Connection ~ 9300 1900
Connection ~ 9500 1900
Wire Wire Line
	9500 2375 9500 2225
Wire Wire Line
	9300 2300 9300 2375
Connection ~ 9300 2375
Wire Wire Line
	9500 2075 9500 1900
Wire Wire Line
	9300 3125 8825 3125
Wire Wire Line
	11775 1425 11775 2050
Wire Wire Line
	10375 2850 10375 3200
Wire Wire Line
	10375 3500 10375 3675
Connection ~ 10375 3625
Connection ~ 10375 3125
Wire Wire Line
	9875 3000 10675 3000
Connection ~ 10375 3000
Wire Wire Line
	10075 2700 10175 2700
Wire Wire Line
	7625 3700 7625 3775
Wire Wire Line
	7625 3775 10225 3775
Wire Wire Line
	10225 3775 10225 3625
Wire Wire Line
	10375 2400 10375 2550
Wire Notes Line
	5450 700  12325 700 
Wire Wire Line
	6725 4725 6725 4825
Wire Wire Line
	6725 5125 6850 5125
Wire Wire Line
	6850 5275 6675 5275
Wire Wire Line
	6850 5425 6675 5425
Wire Wire Line
	8075 5400 8075 5875
Wire Wire Line
	7700 5275 7925 5275
Wire Wire Line
	7925 5275 7925 5425
Wire Wire Line
	7925 5425 8075 5425
Connection ~ 8075 5425
Wire Wire Line
	7700 5125 7700 5100
Wire Wire Line
	7700 5100 8375 5100
Connection ~ 8075 5100
Wire Wire Line
	8975 5200 9150 5200
Wire Wire Line
	8375 5300 8375 5550
Wire Wire Line
	8375 5550 9050 5550
Wire Wire Line
	9050 5550 9050 5200
Connection ~ 9050 5200
Wire Wire Line
	9450 5200 10525 5200
Wire Wire Line
	10100 5200 10100 5450
Connection ~ 10100 5200
Wire Wire Line
	10525 5400 10525 6125
Connection ~ 10525 6000
Wire Wire Line
	10825 6000 10925 6000
Wire Wire Line
	9525 2700 9775 2700
Wire Wire Line
	11125 5300 11525 5300
Wire Wire Line
	11225 6000 11225 5300
Connection ~ 11225 5300
Wire Wire Line
	10525 6425 11225 6425
Wire Notes Line
	6625 4225 11675 4225
Wire Notes Line
	11675 4225 11675 8775
Wire Notes Line
	6625 4225 6625 8775
Wire Wire Line
	13775 3275 14100 3275
Wire Notes Line
	12825 2700 14150 2700
Wire Notes Line
	14150 2700 14150 3825
Wire Notes Line
	14150 3825 12825 3825
Wire Notes Line
	12825 3825 12825 2700
Wire Wire Line
	13375 2925 13375 2975
Wire Notes Line
	5450 700  5450 3825
Wire Notes Line
	5450 3825 12325 3825
Wire Wire Line
	13025 7600 13275 7600
Wire Wire Line
	14325 6800 15225 6800
Wire Wire Line
	13150 7900 13275 7900
Wire Wire Line
	13150 8000 13275 8000
Wire Wire Line
	13150 8100 13275 8100
Wire Wire Line
	13150 8200 13275 8200
Wire Wire Line
	13275 8300 13150 8300
Wire Wire Line
	13275 8400 13150 8400
Wire Wire Line
	13275 8500 13150 8500
Wire Wire Line
	14675 7750 15025 7750
Wire Wire Line
	13025 7700 13025 7600
Wire Wire Line
	12525 7700 13025 7700
Wire Wire Line
	13125 7700 13275 7700
Connection ~ 12825 7700
Wire Wire Line
	12525 7800 12525 8150
Wire Wire Line
	2850 7800 2875 7800
Wire Wire Line
	2875 7800 2875 8250
Wire Wire Line
	15150 5425 15150 5375
Wire Wire Line
	13375 3625 13375 3575
Connection ~ 14825 6800
Wire Wire Line
	14325 7500 13975 7500
Wire Wire Line
	14325 6800 14325 7500
Wire Wire Line
	13975 8100 14375 8100
Wire Wire Line
	10725 5600 10725 5650
Connection ~ 10925 4450
Connection ~ 11125 4450
Wire Wire Line
	10925 4750 10925 4775
Wire Wire Line
	10925 4775 11300 4775
Wire Wire Line
	11300 4775 11300 4750
Connection ~ 11125 4775
Wire Wire Line
	10725 5000 10725 4450
Connection ~ 10725 4450
Wire Wire Line
	10725 4450 11300 4450
Wire Wire Line
	10450 7675 10450 8400
Connection ~ 10450 8275
Wire Wire Line
	10750 8275 10850 8275
Wire Wire Line
	11050 7575 11450 7575
Wire Wire Line
	11150 8275 11150 7575
Connection ~ 11150 7575
Wire Wire Line
	10450 8700 11150 8700
Wire Wire Line
	10650 7875 10650 7925
Connection ~ 10875 6800
Connection ~ 11075 6800
Wire Wire Line
	10875 7100 10875 7125
Wire Wire Line
	10875 7125 11250 7125
Wire Wire Line
	11250 7125 11250 7100
Connection ~ 11075 7125
Wire Wire Line
	10650 6800 11250 6800
Wire Wire Line
	10650 6800 10650 7275
Wire Wire Line
	10450 7475 10400 7475
Wire Wire Line
	10400 7475 10400 5200
Connection ~ 10400 5200
Wire Notes Line
	6625 8775 11675 8775
Wire Wire Line
	11050 3025 11850 3025
Connection ~ 11550 3025
Wire Wire Line
	11250 2725 11350 2725
Wire Wire Line
	10700 2725 10950 2725
Wire Wire Line
	11550 3500 11550 3675
Wire Wire Line
	11550 2575 11550 2400
Wire Wire Line
	6250 2700 6250 2900
Wire Wire Line
	6800 2300 6800 2375
Wire Wire Line
	11550 2875 11550 3200
Wire Notes Line
	12325 3825 12325 700 
Wire Wire Line
	1725 5175 2350 5175
Wire Wire Line
	1425 5175 1175 5175
Wire Wire Line
	1175 5375 1425 5375
Wire Wire Line
	2550 6475 2550 6550
Wire Wire Line
	2250 4775 2250 4825
Wire Wire Line
	2250 4475 2550 4475
Wire Wire Line
	2550 4475 2550 4975
Connection ~ 2550 4475
Wire Wire Line
	2750 5575 3125 5575
Wire Wire Line
	3125 5575 3125 6000
Wire Wire Line
	2650 5575 2650 6000
Wire Wire Line
	1925 5175 1925 5025
Connection ~ 1925 5175
Wire Wire Line
	1925 5500 1925 5375
Wire Wire Line
	2950 5275 4200 5275
Wire Wire Line
	1625 4725 1925 4725
Wire Wire Line
	1925 5800 1925 6775
Wire Wire Line
	1925 6775 3425 6775
Connection ~ 3425 5275
Wire Wire Line
	5450 5300 5300 5300
Wire Wire Line
	5300 5100 6300 5100
Connection ~ 5900 5100
Wire Wire Line
	5900 5500 5900 5400
Wire Wire Line
	5300 5700 5450 5700
Wire Wire Line
	5450 5700 5450 5600
Wire Wire Line
	4350 4850 4350 5100
Wire Wire Line
	4350 5100 4500 5100
Wire Wire Line
	2650 6000 2825 6000
Wire Wire Line
	3425 6775 3425 5275
Wire Wire Line
	2550 5575 2550 6175
Connection ~ 2550 6175
Wire Wire Line
	2550 6175 6300 6175
Wire Wire Line
	6300 6175 6300 5100
Wire Wire Line
	4900 5950 4900 5900
Wire Notes Line
	550  4225 6375 4225
Wire Notes Line
	6375 4225 6375 6850
Wire Notes Line
	6375 6850 550  6850
Wire Notes Line
	550  6850 550  4225
Wire Wire Line
	10125 1525 9650 1525
Wire Wire Line
	9650 1525 9650 1900
Wire Wire Line
	15225 3275 15550 3275
Wire Notes Line
	14275 2700 15600 2700
Wire Notes Line
	15600 2700 15600 3825
Wire Notes Line
	15600 3825 14275 3825
Wire Notes Line
	14275 3825 14275 2700
Wire Wire Line
	14825 2925 14825 2975
Wire Wire Line
	14825 3575 14825 3625
Wire Wire Line
	13975 8200 14225 8200
Wire Wire Line
	13850 1875 14200 1875
Wire Wire Line
	14200 975  14200 1000
Wire Wire Line
	14200 1000 15425 1000
Connection ~ 14200 1000
Wire Wire Line
	14200 1500 15425 1500
Wire Wire Line
	14200 1550 14200 1500
Connection ~ 14200 1500
Wire Wire Line
	14200 1850 14200 1925
Connection ~ 14200 1875
Wire Wire Line
	13850 1700 14000 1700
Wire Wire Line
	13550 1700 13550 1875
Connection ~ 13550 1700
Wire Wire Line
	13275 1700 13550 1700
Connection ~ 15025 7750
Connection ~ 14850 7750
Wire Wire Line
	14375 7750 14325 7750
Wire Wire Line
	14325 7750 14325 8000
Wire Wire Line
	14325 8000 13975 8000
Wire Wire Line
	14850 8100 14675 8100
Wire Wire Line
	14850 7750 14850 8100
Wire Wire Line
	15425 1000 15425 1100
Connection ~ 15100 1000
Wire Wire Line
	15425 1500 15425 1400
Connection ~ 15100 1500
Wire Wire Line
	14625 1000 14625 1100
Connection ~ 14625 1000
Wire Wire Line
	14625 1400 14625 1500
Connection ~ 14625 1500
Wire Notes Line
	13125 700  15600 700 
Wire Notes Line
	15600 700  15600 2075
Wire Notes Line
	15600 2075 13125 2075
Wire Notes Line
	13125 2075 13125 700 
Wire Wire Line
	1725 5375 2350 5375
Connection ~ 1925 5375
Connection ~ 8325 6325
Wire Wire Line
	10375 3125 9600 3125
Wire Wire Line
	10225 3625 10575 3625
Wire Wire Line
	10675 3750 10575 3750
Wire Wire Line
	10575 3750 10575 3625
Wire Wire Line
	10675 3000 10675 3050
Wire Wire Line
	10675 3350 10675 3450
Wire Wire Line
	11850 3350 11850 3450
Wire Wire Line
	11850 3025 11850 3050
Wire Wire Line
	11850 3750 11750 3750
Wire Wire Line
	11750 3750 11750 3650
Wire Wire Line
	11750 3650 11550 3650
Connection ~ 11550 3650
Wire Wire Line
	10375 1575 10375 2100
Wire Wire Line
	11550 1450 11550 2100
Connection ~ 8050 6825
Wire Wire Line
	8750 6825 8750 6625
Connection ~ 8325 6825
Wire Wire Line
	7475 5550 7800 5550
Wire Wire Line
	7700 5550 7700 5425
Wire Wire Line
	8325 6325 8325 6175
Wire Wire Line
	8325 6175 7800 6175
Wire Wire Line
	7800 6175 7800 5550
Connection ~ 7700 5550
Wire Wire Line
	7475 5850 7475 5875
Wire Wire Line
	9925 5450 9925 5375
Wire Wire Line
	9925 5375 10100 5375
Connection ~ 10100 5375
Wire Wire Line
	9925 5750 9925 5825
Wire Wire Line
	9925 5825 10100 5825
Wire Wire Line
	10100 5825 10100 5750
Wire Wire Line
	10025 5950 10025 5825
Connection ~ 10025 5825
Wire Wire Line
	600  3000 1750 3000
Connection ~ 875  3000
Connection ~ 1275 3000
Wire Wire Line
	875  3300 875  3450
Wire Wire Line
	875  3450 4725 3450
Wire Wire Line
	3050 3300 3050 3625
Wire Wire Line
	2100 3350 2100 3450
Connection ~ 2100 3450
Wire Wire Line
	1275 3450 1275 3300
Connection ~ 1275 3450
Wire Wire Line
	2650 3300 2650 3450
Connection ~ 2650 3450
Wire Wire Line
	2450 3000 3375 3000
Connection ~ 2650 3000
Wire Wire Line
	3050 3000 3050 2750
Connection ~ 3050 3000
Connection ~ 3050 3450
Wire Wire Line
	3725 3450 3725 3350
Wire Wire Line
	4275 3450 4275 3300
Connection ~ 3725 3450
Wire Wire Line
	4725 3450 4725 3300
Connection ~ 4275 3450
Wire Wire Line
	4075 3000 4725 3000
Connection ~ 4275 3000
Wire Wire Line
	4725 3000 4725 2750
Wire Wire Line
	700  2100 600  2100
Wire Wire Line
	600  2100 600  3000
Connection ~ 700  2100
Wire Wire Line
	1450 2100 1875 2100
Wire Wire Line
	1700 2100 1700 3450
Connection ~ 1700 3450
Connection ~ 1450 2100
Wire Wire Line
	14850 4875 14850 4825
Connection ~ 15000 4825
Wire Wire Line
	14850 5075 14850 5125
Connection ~ 15000 5125
Wire Wire Line
	925  9350 925  9450
Wire Wire Line
	925  10375 925  10250
Wire Wire Line
	925  9750 925  9950
Wire Wire Line
	1175 9875 925  9875
Connection ~ 925  9875
Wire Wire Line
	1175 10075 1125 10075
Wire Wire Line
	1125 10075 1125 10350
Wire Wire Line
	1125 10350 1950 10350
Wire Wire Line
	1950 10350 1950 9975
Wire Wire Line
	1950 9975 1775 9975
Wire Notes Line
	550  9100 2075 9100
Wire Notes Line
	2075 9100 2075 10650
Wire Notes Line
	2075 10650 550  10650
Wire Notes Line
	550  10650 550  9100
Connection ~ 1700 2100
Wire Wire Line
	13375 2950 12925 2950
Wire Wire Line
	12925 2950 12925 3250
Connection ~ 13375 2950
Wire Wire Line
	12925 3550 12925 3625
Wire Wire Line
	12925 3625 13375 3625
Connection ~ 13375 3625
Wire Wire Line
	14400 2950 14400 3250
Wire Wire Line
	14400 2950 14825 2950
Connection ~ 14825 2950
Wire Wire Line
	14400 3550 14400 3600
Wire Wire Line
	14400 3600 14825 3600
Connection ~ 14825 3600
Wire Wire Line
	15125 8525 15125 8650
Wire Wire Line
	14250 8575 15125 8575
Connection ~ 15125 8575
Wire Wire Line
	14250 8525 14250 8575
Connection ~ 14625 8575
Wire Wire Line
	14100 8375 14750 8375
Connection ~ 14625 8375
Wire Wire Line
	15050 8375 15125 8375
Wire Wire Line
	15125 8375 15125 8425
Wire Wire Line
	13975 8600 14100 8600
Wire Wire Line
	14100 8600 14100 8375
Connection ~ 14250 8375
Wire Wire Line
	8400 7975 8375 7975
Wire Wire Line
	8050 6325 9700 6325
Wire Wire Line
	8750 8325 8750 8450
Wire Wire Line
	8200 8125 8200 8350
Wire Wire Line
	8200 8350 8750 8350
Connection ~ 8750 8350
Wire Wire Line
	8375 7975 8375 8350
Connection ~ 8375 8350
Wire Wire Line
	8200 7175 8200 7825
Wire Wire Line
	8750 7175 8200 7175
Wire Wire Line
	8750 7475 8750 7625
Wire Wire Line
	8750 7550 9275 7550
Wire Wire Line
	9275 7550 9275 8425
Wire Wire Line
	9275 8425 9700 8425
Connection ~ 8750 7550
Wire Wire Line
	9700 7675 9275 7675
Connection ~ 9275 7675
Wire Wire Line
	9700 6325 9700 7375
Connection ~ 8750 6325
Wire Wire Line
	9700 8125 9700 8075
Wire Wire Line
	9700 8075 9450 8075
Wire Wire Line
	9450 8075 9450 6325
Connection ~ 9450 6325
Wire Wire Line
	9850 7525 9975 7525
Wire Wire Line
	9850 8275 9925 8275
Wire Wire Line
	10225 8275 10450 8275
Wire Wire Line
	9975 7225 10250 7225
Wire Wire Line
	10250 7225 10250 6000
Wire Wire Line
	10250 6000 10525 6000
Wire Notes Line
	7900 7050 7900 8675
Wire Notes Line
	7900 7050 10300 7050
Wire Notes Line
	10300 7050 10300 8675
Wire Notes Line
	10300 8675 7900 8675
Wire Wire Line
	11175 1800 11200 1800
Wire Wire Line
	10875 1800 10875 1975
Wire Wire Line
	10600 1800 10875 1800
Connection ~ 10875 1800
Wire Wire Line
	11600 1050 11775 1050
Wire Wire Line
	11775 1000 11775 1125
Wire Wire Line
	11025 1050 11025 1000
Wire Wire Line
	11025 1000 11775 1000
Connection ~ 11775 1050
Wire Wire Line
	10375 1575 10975 1575
Wire Wire Line
	10975 1575 10975 1450
Wire Wire Line
	10725 1450 10725 1500
Wire Wire Line
	10725 1500 11400 1500
Wire Wire Line
	11300 1500 11300 1450
Wire Wire Line
	11400 1500 11400 1650
Connection ~ 11300 1500
Wire Wire Line
	11300 925  11300 1050
Wire Wire Line
	10725 925  11300 925 
Wire Wire Line
	10725 925  10725 1050
Connection ~ 11150 925 
Wire Wire Line
	11175 1975 11775 1975
Connection ~ 11775 1975
Wire Wire Line
	11400 1950 11400 1975
Connection ~ 11400 1975
Wire Notes Line
	10275 700  10275 2450
Wire Notes Line
	11675 2450 10275 2450
Wire Notes Line
	11675 700  11675 2450
Wire Wire Line
	13975 7700 14225 7700
$EndSCHEMATC
