(module EuroBoard160mmX100mm_holes locked (layer F.Cu) (tedit 58DD2F5A)
  (descr "Outline, Eurocard, 100x160mm, with holes 3,5mm,")
  (tags "Outline, Eurocard, 100x160mm, with holes 3,5mm,")
  (zone_connect 0)
  (fp_text reference REF** (at 78.74 -60.96) (layer F.SilkS) hide
    (effects (font (size 1 1) (thickness 0.15)))
  )
  (fp_text value EuroBoard160mmX100mm_holes (at 85.09 -35.56) (layer F.Fab) hide
    (effects (font (size 1 1) (thickness 0.15)))
  )
  (fp_line (start 0 -99.9998) (end 0 0) (layer Edge.Cuts) (width 0.381))
  (fp_line (start 0 0) (end 159.99968 0) (layer Edge.Cuts) (width 0.381))
  (fp_line (start 159.99968 0) (end 159.99968 -99.9998) (layer Edge.Cuts) (width 0.381))
  (fp_line (start 159.99968 -99.9998) (end 0 -99.9998) (layer Edge.Cuts) (width 0.381))
  (pad "" np_thru_hole circle (at 5.00126 -95.00108) (size 3.50012 3.50012) (drill 3.50012) (layers *.Cu *.Mask)
    (zone_connect 0))
  (pad "" np_thru_hole circle (at 155.00096 -95.00108) (size 3.50012 3.50012) (drill 3.50012) (layers *.Cu *.Mask)
    (zone_connect 0))
  (pad "" np_thru_hole circle (at 155.00096 -5.00126) (size 3.50012 3.50012) (drill 3.50012) (layers *.Cu *.Mask)
    (zone_connect 0))
  (pad "" np_thru_hole circle (at 5.00126 -5.00126) (size 3.50012 3.50012) (drill 3.50012) (layers *.Cu *.Mask)
    (zone_connect 0))
)
